simulation/qsim/Trabalho.msim.vcd
$comment
	File created using the following command:
		vcd file Trabalho.msim.vcd -direction
$end
$date
	Fri Jan 24 22:18:59 2025
$end
$version
	ModelSim Version 10.5b
$end
$timescale
	1ps
$end

$scope module trabalho_vhd_vec_tst $end
$var wire 1 ! CLK $end
$var wire 1 " controle_BCD $end
$var wire 1 # reset $end
$var wire 1 $ saida_BCD $end
$var wire 1 % valor_CLOCK $end
$var wire 1 & valor_Memoria [15] $end
$var wire 1 ' valor_Memoria [14] $end
$var wire 1 ( valor_Memoria [13] $end
$var wire 1 ) valor_Memoria [12] $end
$var wire 1 * valor_Memoria [11] $end
$var wire 1 + valor_Memoria [10] $end
$var wire 1 , valor_Memoria [9] $end
$var wire 1 - valor_Memoria [8] $end
$var wire 1 . valor_Memoria [7] $end
$var wire 1 / valor_Memoria [6] $end
$var wire 1 0 valor_Memoria [5] $end
$var wire 1 1 valor_Memoria [4] $end
$var wire 1 2 valor_Memoria [3] $end
$var wire 1 3 valor_Memoria [2] $end
$var wire 1 4 valor_Memoria [1] $end
$var wire 1 5 valor_Memoria [0] $end
$var wire 1 6 valor_OPCODE [2] $end
$var wire 1 7 valor_OPCODE [1] $end
$var wire 1 8 valor_OPCODE [0] $end
$var wire 1 9 valor_PC [3] $end
$var wire 1 : valor_PC [2] $end
$var wire 1 ; valor_PC [1] $end
$var wire 1 < valor_PC [0] $end
$var wire 1 = valor_ULA [7] $end
$var wire 1 > valor_ULA [6] $end
$var wire 1 ? valor_ULA [5] $end
$var wire 1 @ valor_ULA [4] $end
$var wire 1 A valor_ULA [3] $end
$var wire 1 B valor_ULA [2] $end
$var wire 1 C valor_ULA [1] $end
$var wire 1 D valor_ULA [0] $end
$var wire 1 E valor_X [7] $end
$var wire 1 F valor_X [6] $end
$var wire 1 G valor_X [5] $end
$var wire 1 H valor_X [4] $end
$var wire 1 I valor_X [3] $end
$var wire 1 J valor_X [2] $end
$var wire 1 K valor_X [1] $end
$var wire 1 L valor_X [0] $end
$var wire 1 M valor_Y [7] $end
$var wire 1 N valor_Y [6] $end
$var wire 1 O valor_Y [5] $end
$var wire 1 P valor_Y [4] $end
$var wire 1 Q valor_Y [3] $end
$var wire 1 R valor_Y [2] $end
$var wire 1 S valor_Y [1] $end
$var wire 1 T valor_Y [0] $end

$scope module i1 $end
$var wire 1 U gnd $end
$var wire 1 V vcc $end
$var wire 1 W unknown $end
$var wire 1 X devoe $end
$var wire 1 Y devclrn $end
$var wire 1 Z devpor $end
$var wire 1 [ ww_devoe $end
$var wire 1 \ ww_devclrn $end
$var wire 1 ] ww_devpor $end
$var wire 1 ^ ww_reset $end
$var wire 1 _ ww_CLK $end
$var wire 1 ` ww_controle_BCD $end
$var wire 1 a ww_saida_BCD $end
$var wire 1 b ww_valor_PC [3] $end
$var wire 1 c ww_valor_PC [2] $end
$var wire 1 d ww_valor_PC [1] $end
$var wire 1 e ww_valor_PC [0] $end
$var wire 1 f ww_valor_Memoria [15] $end
$var wire 1 g ww_valor_Memoria [14] $end
$var wire 1 h ww_valor_Memoria [13] $end
$var wire 1 i ww_valor_Memoria [12] $end
$var wire 1 j ww_valor_Memoria [11] $end
$var wire 1 k ww_valor_Memoria [10] $end
$var wire 1 l ww_valor_Memoria [9] $end
$var wire 1 m ww_valor_Memoria [8] $end
$var wire 1 n ww_valor_Memoria [7] $end
$var wire 1 o ww_valor_Memoria [6] $end
$var wire 1 p ww_valor_Memoria [5] $end
$var wire 1 q ww_valor_Memoria [4] $end
$var wire 1 r ww_valor_Memoria [3] $end
$var wire 1 s ww_valor_Memoria [2] $end
$var wire 1 t ww_valor_Memoria [1] $end
$var wire 1 u ww_valor_Memoria [0] $end
$var wire 1 v ww_valor_OPCODE [2] $end
$var wire 1 w ww_valor_OPCODE [1] $end
$var wire 1 x ww_valor_OPCODE [0] $end
$var wire 1 y ww_valor_Y [7] $end
$var wire 1 z ww_valor_Y [6] $end
$var wire 1 { ww_valor_Y [5] $end
$var wire 1 | ww_valor_Y [4] $end
$var wire 1 } ww_valor_Y [3] $end
$var wire 1 ~ ww_valor_Y [2] $end
$var wire 1 !! ww_valor_Y [1] $end
$var wire 1 "! ww_valor_Y [0] $end
$var wire 1 #! ww_valor_X [7] $end
$var wire 1 $! ww_valor_X [6] $end
$var wire 1 %! ww_valor_X [5] $end
$var wire 1 &! ww_valor_X [4] $end
$var wire 1 '! ww_valor_X [3] $end
$var wire 1 (! ww_valor_X [2] $end
$var wire 1 )! ww_valor_X [1] $end
$var wire 1 *! ww_valor_X [0] $end
$var wire 1 +! ww_valor_ULA [7] $end
$var wire 1 ,! ww_valor_ULA [6] $end
$var wire 1 -! ww_valor_ULA [5] $end
$var wire 1 .! ww_valor_ULA [4] $end
$var wire 1 /! ww_valor_ULA [3] $end
$var wire 1 0! ww_valor_ULA [2] $end
$var wire 1 1! ww_valor_ULA [1] $end
$var wire 1 2! ww_valor_ULA [0] $end
$var wire 1 3! ww_valor_CLOCK $end
$var wire 1 4! \controle_BCD~output_o\ $end
$var wire 1 5! \saida_BCD~output_o\ $end
$var wire 1 6! \valor_PC[0]~output_o\ $end
$var wire 1 7! \valor_PC[1]~output_o\ $end
$var wire 1 8! \valor_PC[2]~output_o\ $end
$var wire 1 9! \valor_PC[3]~output_o\ $end
$var wire 1 :! \valor_Memoria[0]~output_o\ $end
$var wire 1 ;! \valor_Memoria[1]~output_o\ $end
$var wire 1 <! \valor_Memoria[2]~output_o\ $end
$var wire 1 =! \valor_Memoria[3]~output_o\ $end
$var wire 1 >! \valor_Memoria[4]~output_o\ $end
$var wire 1 ?! \valor_Memoria[5]~output_o\ $end
$var wire 1 @! \valor_Memoria[6]~output_o\ $end
$var wire 1 A! \valor_Memoria[7]~output_o\ $end
$var wire 1 B! \valor_Memoria[8]~output_o\ $end
$var wire 1 C! \valor_Memoria[9]~output_o\ $end
$var wire 1 D! \valor_Memoria[10]~output_o\ $end
$var wire 1 E! \valor_Memoria[11]~output_o\ $end
$var wire 1 F! \valor_Memoria[12]~output_o\ $end
$var wire 1 G! \valor_Memoria[13]~output_o\ $end
$var wire 1 H! \valor_Memoria[14]~output_o\ $end
$var wire 1 I! \valor_Memoria[15]~output_o\ $end
$var wire 1 J! \valor_OPCODE[0]~output_o\ $end
$var wire 1 K! \valor_OPCODE[1]~output_o\ $end
$var wire 1 L! \valor_OPCODE[2]~output_o\ $end
$var wire 1 M! \valor_Y[0]~output_o\ $end
$var wire 1 N! \valor_Y[1]~output_o\ $end
$var wire 1 O! \valor_Y[2]~output_o\ $end
$var wire 1 P! \valor_Y[3]~output_o\ $end
$var wire 1 Q! \valor_Y[4]~output_o\ $end
$var wire 1 R! \valor_Y[5]~output_o\ $end
$var wire 1 S! \valor_Y[6]~output_o\ $end
$var wire 1 T! \valor_Y[7]~output_o\ $end
$var wire 1 U! \valor_X[0]~output_o\ $end
$var wire 1 V! \valor_X[1]~output_o\ $end
$var wire 1 W! \valor_X[2]~output_o\ $end
$var wire 1 X! \valor_X[3]~output_o\ $end
$var wire 1 Y! \valor_X[4]~output_o\ $end
$var wire 1 Z! \valor_X[5]~output_o\ $end
$var wire 1 [! \valor_X[6]~output_o\ $end
$var wire 1 \! \valor_X[7]~output_o\ $end
$var wire 1 ]! \valor_ULA[0]~output_o\ $end
$var wire 1 ^! \valor_ULA[1]~output_o\ $end
$var wire 1 _! \valor_ULA[2]~output_o\ $end
$var wire 1 `! \valor_ULA[3]~output_o\ $end
$var wire 1 a! \valor_ULA[4]~output_o\ $end
$var wire 1 b! \valor_ULA[5]~output_o\ $end
$var wire 1 c! \valor_ULA[6]~output_o\ $end
$var wire 1 d! \valor_ULA[7]~output_o\ $end
$var wire 1 e! \valor_CLOCK~output_o\ $end
$var wire 1 f! \CLK~input_o\ $end
$var wire 1 g! \clock_div|Add0~0_combout\ $end
$var wire 1 h! \clock_div|Add0~1\ $end
$var wire 1 i! \clock_div|Add0~2_combout\ $end
$var wire 1 j! \clock_div|Add0~3\ $end
$var wire 1 k! \clock_div|Add0~4_combout\ $end
$var wire 1 l! \clock_div|Add0~5\ $end
$var wire 1 m! \clock_div|Add0~6_combout\ $end
$var wire 1 n! \clock_div|Add0~7\ $end
$var wire 1 o! \clock_div|Add0~8_combout\ $end
$var wire 1 p! \clock_div|Add0~9\ $end
$var wire 1 q! \clock_div|Add0~10_combout\ $end
$var wire 1 r! \clock_div|Add0~11\ $end
$var wire 1 s! \clock_div|Add0~12_combout\ $end
$var wire 1 t! \clock_div|Add0~13\ $end
$var wire 1 u! \clock_div|Add0~14_combout\ $end
$var wire 1 v! \clock_div|Add0~15\ $end
$var wire 1 w! \clock_div|Add0~16_combout\ $end
$var wire 1 x! \clock_div|Add0~17\ $end
$var wire 1 y! \clock_div|Add0~18_combout\ $end
$var wire 1 z! \clock_div|Add0~19\ $end
$var wire 1 {! \clock_div|Add0~20_combout\ $end
$var wire 1 |! \clock_div|Add0~21\ $end
$var wire 1 }! \clock_div|Add0~22_combout\ $end
$var wire 1 ~! \clock_div|Add0~23\ $end
$var wire 1 !" \clock_div|Add0~24_combout\ $end
$var wire 1 "" \clock_div|Add0~25\ $end
$var wire 1 #" \clock_div|Add0~26_combout\ $end
$var wire 1 $" \clock_div|Add0~27\ $end
$var wire 1 %" \clock_div|Add0~28_combout\ $end
$var wire 1 &" \clock_div|Add0~29\ $end
$var wire 1 '" \clock_div|Add0~30_combout\ $end
$var wire 1 (" \clock_div|Add0~31\ $end
$var wire 1 )" \clock_div|Add0~32_combout\ $end
$var wire 1 *" \clock_div|Add0~33\ $end
$var wire 1 +" \clock_div|Add0~34_combout\ $end
$var wire 1 ," \clock_div|Add0~35\ $end
$var wire 1 -" \clock_div|Add0~36_combout\ $end
$var wire 1 ." \clock_div|Add0~37\ $end
$var wire 1 /" \clock_div|Add0~38_combout\ $end
$var wire 1 0" \clock_div|Equal0~5_combout\ $end
$var wire 1 1" \clock_div|Add0~39\ $end
$var wire 1 2" \clock_div|Add0~40_combout\ $end
$var wire 1 3" \clock_div|Add0~41\ $end
$var wire 1 4" \clock_div|Add0~42_combout\ $end
$var wire 1 5" \clock_div|Add0~43\ $end
$var wire 1 6" \clock_div|Add0~44_combout\ $end
$var wire 1 7" \clock_div|Add0~45\ $end
$var wire 1 8" \clock_div|Add0~46_combout\ $end
$var wire 1 9" \clock_div|Equal0~6_combout\ $end
$var wire 1 :" \clock_div|Add0~47\ $end
$var wire 1 ;" \clock_div|Add0~48_combout\ $end
$var wire 1 <" \clock_div|Add0~49\ $end
$var wire 1 =" \clock_div|Add0~50_combout\ $end
$var wire 1 >" \clock_div|Add0~51\ $end
$var wire 1 ?" \clock_div|Add0~52_combout\ $end
$var wire 1 @" \clock_div|Add0~53\ $end
$var wire 1 A" \clock_div|Add0~54_combout\ $end
$var wire 1 B" \clock_div|Equal0~7_combout\ $end
$var wire 1 C" \clock_div|Add0~55\ $end
$var wire 1 D" \clock_div|Add0~56_combout\ $end
$var wire 1 E" \clock_div|Add0~57\ $end
$var wire 1 F" \clock_div|Add0~58_combout\ $end
$var wire 1 G" \clock_div|Add0~59\ $end
$var wire 1 H" \clock_div|Add0~60_combout\ $end
$var wire 1 I" \clock_div|Add0~61\ $end
$var wire 1 J" \clock_div|Add0~62_combout\ $end
$var wire 1 K" \clock_div|Equal0~8_combout\ $end
$var wire 1 L" \clock_div|Equal0~9_combout\ $end
$var wire 1 M" \clock_div|contador~0_combout\ $end
$var wire 1 N" \clock_div|Equal0~0_combout\ $end
$var wire 1 O" \clock_div|Equal0~1_combout\ $end
$var wire 1 P" \clock_div|Equal0~2_combout\ $end
$var wire 1 Q" \clock_div|Equal0~3_combout\ $end
$var wire 1 R" \clock_div|Equal0~4_combout\ $end
$var wire 1 S" \clock_div|led_status~0_combout\ $end
$var wire 1 T" \clock_div|led_status~q\ $end
$var wire 1 U" \PC_in|sinal_PC~6_combout\ $end
$var wire 1 V" \reset~input_o\ $end
$var wire 1 W" \PC_in|Add0~0_combout\ $end
$var wire 1 X" \PC_in|sinal_PC~5_combout\ $end
$var wire 1 Y" \MEM_ini|Mux2~0_combout\ $end
$var wire 1 Z" \PC_in|sinal_PC[1]~3_combout\ $end
$var wire 1 [" \MEM_ini|Mux0~0_combout\ $end
$var wire 1 \" \sinal_ATT_final~0_combout\ $end
$var wire 1 ]" \PC_in|sinal_PC~4_combout\ $end
$var wire 1 ^" \MEM_ini|Mux1~0_combout\ $end
$var wire 1 _" \PC_in|sinal_PC~2_combout\ $end
$var wire 1 `" \MEM_ini|Mux9~0_combout\ $end
$var wire 1 a" \MEM_ini|Mux8~0_combout\ $end
$var wire 1 b" \MEM_ini|Mux7~0_combout\ $end
$var wire 1 c" \MEM_ini|Mux6~0_combout\ $end
$var wire 1 d" \MEM_ini|Mux5~0_combout\ $end
$var wire 1 e" \MEM_ini|Mux5~1_combout\ $end
$var wire 1 f" \MEM_ini|Mux4~0_combout\ $end
$var wire 1 g" \ULA_ini|Mux7~0_combout\ $end
$var wire 1 h" \ULA_ini|Mux7~1_combout\ $end
$var wire 1 i" \ULA_ini|Add0~0_combout\ $end
$var wire 1 j" \ULA_ini|Mux6~0_combout\ $end
$var wire 1 k" \ULA_ini|Add0~2_combout\ $end
$var wire 1 l" \Controle_ini|CARREGA_out~0_combout\ $end
$var wire 1 m" \ULA_ini|Mux6~1_combout\ $end
$var wire 1 n" \ULA_ini|Add0~1\ $end
$var wire 1 o" \ULA_ini|Add0~3_combout\ $end
$var wire 1 p" \ULA_ini|Add0~5_combout\ $end
$var wire 1 q" \ULA_ini|Mux5~0_combout\ $end
$var wire 1 r" \ULA_ini|Add0~4\ $end
$var wire 1 s" \ULA_ini|Add0~6_combout\ $end
$var wire 1 t" \ULA_ini|Add0~8_combout\ $end
$var wire 1 u" \ULA_ini|Mux4~0_combout\ $end
$var wire 1 v" \ULA_ini|Add0~7\ $end
$var wire 1 w" \ULA_ini|Add0~9_combout\ $end
$var wire 1 x" \ULA_ini|Add0~11_combout\ $end
$var wire 1 y" \ULA_ini|Mux3~0_combout\ $end
$var wire 1 z" \ULA_ini|Add0~10\ $end
$var wire 1 {" \ULA_ini|Add0~12_combout\ $end
$var wire 1 |" \ULA_ini|Add0~14_combout\ $end
$var wire 1 }" \ULA_ini|Mux2~0_combout\ $end
$var wire 1 ~" \ULA_ini|Mux2~1_combout\ $end
$var wire 1 !# \ULA_ini|Mux2~2_combout\ $end
$var wire 1 "# \ULA_ini|Mux2~3_combout\ $end
$var wire 1 ## \ULA_ini|Add0~13\ $end
$var wire 1 $# \ULA_ini|Add0~15_combout\ $end
$var wire 1 %# \ULA_ini|Add0~17_combout\ $end
$var wire 1 &# \ULA_ini|Mux1~0_combout\ $end
$var wire 1 '# \ULA_ini|Add0~16\ $end
$var wire 1 (# \ULA_ini|Add0~18_combout\ $end
$var wire 1 )# \ULA_ini|Add0~20_combout\ $end
$var wire 1 *# \ULA_ini|Mux0~0_combout\ $end
$var wire 1 +# \ULA_ini|Mux0~1_combout\ $end
$var wire 1 ,# \ULA_ini|Add0~19\ $end
$var wire 1 -# \ULA_ini|Add0~21_combout\ $end
$var wire 1 .# \ULA_ini|Add0~23_combout\ $end
$var wire 1 /# \PC_in|sinal_PC\ [3] $end
$var wire 1 0# \PC_in|sinal_PC\ [2] $end
$var wire 1 1# \PC_in|sinal_PC\ [1] $end
$var wire 1 2# \PC_in|sinal_PC\ [0] $end
$var wire 1 3# \MEM_ini|instrucao_atual\ [15] $end
$var wire 1 4# \MEM_ini|instrucao_atual\ [14] $end
$var wire 1 5# \MEM_ini|instrucao_atual\ [13] $end
$var wire 1 6# \MEM_ini|instrucao_atual\ [12] $end
$var wire 1 7# \MEM_ini|instrucao_atual\ [11] $end
$var wire 1 8# \MEM_ini|instrucao_atual\ [10] $end
$var wire 1 9# \MEM_ini|instrucao_atual\ [9] $end
$var wire 1 :# \MEM_ini|instrucao_atual\ [8] $end
$var wire 1 ;# \MEM_ini|instrucao_atual\ [7] $end
$var wire 1 <# \MEM_ini|instrucao_atual\ [6] $end
$var wire 1 =# \MEM_ini|instrucao_atual\ [5] $end
$var wire 1 ># \MEM_ini|instrucao_atual\ [4] $end
$var wire 1 ?# \MEM_ini|instrucao_atual\ [3] $end
$var wire 1 @# \MEM_ini|instrucao_atual\ [2] $end
$var wire 1 A# \MEM_ini|instrucao_atual\ [1] $end
$var wire 1 B# \MEM_ini|instrucao_atual\ [0] $end
$var wire 1 C# \REG_ini|REG_out\ [7] $end
$var wire 1 D# \REG_ini|REG_out\ [6] $end
$var wire 1 E# \REG_ini|REG_out\ [5] $end
$var wire 1 F# \REG_ini|REG_out\ [4] $end
$var wire 1 G# \REG_ini|REG_out\ [3] $end
$var wire 1 H# \REG_ini|REG_out\ [2] $end
$var wire 1 I# \REG_ini|REG_out\ [1] $end
$var wire 1 J# \REG_ini|REG_out\ [0] $end
$var wire 1 K# \clock_div|contador\ [31] $end
$var wire 1 L# \clock_div|contador\ [30] $end
$var wire 1 M# \clock_div|contador\ [29] $end
$var wire 1 N# \clock_div|contador\ [28] $end
$var wire 1 O# \clock_div|contador\ [27] $end
$var wire 1 P# \clock_div|contador\ [26] $end
$var wire 1 Q# \clock_div|contador\ [25] $end
$var wire 1 R# \clock_div|contador\ [24] $end
$var wire 1 S# \clock_div|contador\ [23] $end
$var wire 1 T# \clock_div|contador\ [22] $end
$var wire 1 U# \clock_div|contador\ [21] $end
$var wire 1 V# \clock_div|contador\ [20] $end
$var wire 1 W# \clock_div|contador\ [19] $end
$var wire 1 X# \clock_div|contador\ [18] $end
$var wire 1 Y# \clock_div|contador\ [17] $end
$var wire 1 Z# \clock_div|contador\ [16] $end
$var wire 1 [# \clock_div|contador\ [15] $end
$var wire 1 \# \clock_div|contador\ [14] $end
$var wire 1 ]# \clock_div|contador\ [13] $end
$var wire 1 ^# \clock_div|contador\ [12] $end
$var wire 1 _# \clock_div|contador\ [11] $end
$var wire 1 `# \clock_div|contador\ [10] $end
$var wire 1 a# \clock_div|contador\ [9] $end
$var wire 1 b# \clock_div|contador\ [8] $end
$var wire 1 c# \clock_div|contador\ [7] $end
$var wire 1 d# \clock_div|contador\ [6] $end
$var wire 1 e# \clock_div|contador\ [5] $end
$var wire 1 f# \clock_div|contador\ [4] $end
$var wire 1 g# \clock_div|contador\ [3] $end
$var wire 1 h# \clock_div|contador\ [2] $end
$var wire 1 i# \clock_div|contador\ [1] $end
$var wire 1 j# \clock_div|contador\ [0] $end
$upscope $end
$upscope $end
$enddefinitions $end
#0
$dumpvars
0!
0"
0#
0$
0%
0U
1V
xW
1X
1Y
1Z
1[
1\
1]
0^
0_
0`
0a
03!
04!
05!
06!
07!
08!
09!
0:!
0;!
0<!
0=!
0>!
0?!
0@!
0A!
0B!
0C!
0D!
0E!
0F!
0G!
0H!
0I!
0J!
0K!
0L!
0M!
0N!
0O!
0P!
0Q!
0R!
0S!
0T!
0U!
0V!
0W!
0X!
0Y!
0Z!
0[!
0\!
0]!
0^!
0_!
0`!
0a!
0b!
0c!
0d!
0e!
0f!
1g!
0h!
0i!
1j!
0k!
0l!
0m!
1n!
0o!
0p!
0q!
1r!
0s!
0t!
0u!
1v!
0w!
0x!
0y!
1z!
0{!
0|!
0}!
1~!
0!"
0""
0#"
1$"
0%"
0&"
0'"
1("
0)"
0*"
0+"
1,"
0-"
0."
0/"
10"
11"
02"
03"
04"
15"
06"
07"
08"
19"
1:"
0;"
0<"
0="
1>"
0?"
0@"
0A"
1B"
1C"
0D"
0E"
0F"
1G"
0H"
0I"
0J"
1K"
1L"
0M"
1N"
1O"
1P"
1Q"
1R"
1S"
0T"
0U"
0V"
0W"
0X"
1Y"
1Z"
0["
1\"
0]"
0^"
1_"
1`"
1a"
1b"
0c"
0d"
0e"
0f"
0g"
0h"
0i"
1j"
0k"
0l"
0m"
0n"
0o"
0p"
0q"
1r"
0s"
0t"
0u"
0v"
0w"
0x"
0y"
1z"
0{"
0|"
0}"
0~"
0!#
0"#
0##
0$#
0%#
0&#
1'#
0(#
0)#
0*#
0+#
0,#
0-#
0.#
09
0:
0;
0<
0&
0'
0(
0)
0*
0+
0,
0-
0.
0/
00
01
02
03
04
05
06
07
08
0M
0N
0O
0P
0Q
0R
0S
0T
0E
0F
0G
0H
0I
0J
0K
0L
0=
0>
0?
0@
0A
0B
0C
0D
0b
0c
0d
0e
0f
0g
0h
0i
0j
0k
0l
0m
0n
0o
0p
0q
0r
0s
0t
0u
0v
0w
0x
0y
0z
0{
0|
0}
0~
0!!
0"!
0#!
0$!
0%!
0&!
0'!
0(!
0)!
0*!
0+!
0,!
0-!
0.!
0/!
00!
01!
02!
0/#
00#
01#
02#
x3#
x4#
x5#
x6#
x7#
08#
09#
0:#
x;#
0<#
0=#
0>#
0?#
0@#
0A#
0B#
0C#
0D#
0E#
0F#
0G#
0H#
0I#
0J#
0K#
0L#
0M#
0N#
0O#
0P#
0Q#
0R#
0S#
0T#
0U#
0V#
0W#
0X#
0Y#
0Z#
0[#
0\#
0]#
0^#
0_#
0`#
0a#
0b#
0c#
0d#
0e#
0f#
0g#
0h#
0i#
0j#
$end
#5000
1!
1_
1f!
1T"
0S"
1:#
12#
1B#
1A#
1@#
1s"
1o"
1i"
1["
1]"
0_"
0`"
0b"
1h"
0j"
1l"
1m"
1q"
1~"
1!#
1*#
1e!
1+#
1"#
0!#
0*#
1k"
1p"
1t"
13!
1<!
1O!
1;!
1N!
1:!
1M!
16!
1B!
1J!
1%
0+#
0"#
1s
1~
1t
1!!
1u
1"!
1e
1m
1x
15
14
13
1-
1T
1S
1R
1<
18
1_!
1^!
1]!
10!
11!
12!
1D
1C
1B
#10000
0!
0_
0f!
#15000
1!
1_
1f!
0T"
1S"
0e!
03!
0%
#20000
0!
0_
0f!
#25000
1!
1_
1f!
1T"
0S"
18#
11#
02#
0B#
0@#
1J#
1I#
1H#
0o"
0r"
0["
1`"
0a"
1b"
1_"
1g"
0h"
1j"
0q"
0~"
1"#
1+#
1e!
1!#
1*#
1%#
1.#
0k"
0t"
0s"
1v"
13!
1W!
1V!
1U!
0<!
0O!
0:!
0M!
06!
17!
1D!
1L!
1%
1w"
0+#
0"#
1(!
1)!
1*!
0s
0~
0u
0"!
0e
1d
1k
1v
1L
1K
1J
05
03
1+
0T
0R
0<
1;
16
0%#
0.#
0_!
0]!
1d!
1b!
00!
02!
1+!
1-!
0D
0B
1?
1=
0d!
0b!
0+!
0-!
0?
0=
#30000
0!
0_
0f!
#35000
1!
1_
1f!
0T"
1S"
0e!
03!
0%
#40000
0!
0_
0f!
#45000
1!
1_
1f!
1T"
0S"
08#
12#
1B#
0A#
1@#
0J#
0H#
1o"
1r"
1U"
1W"
0]"
0`"
0b"
1c"
0_"
0g"
1h"
0j"
1q"
1~"
1"#
1+#
1e!
0!#
0*#
1k"
1x"
1s"
0v"
13!
0W!
0U!
1<!
1O!
0;!
0N!
1:!
1M!
16!
0D!
0L!
1%
0w"
1t"
0+#
0"#
0(!
0*!
1s
1~
0t
0!!
1u
1"!
1e
0k
0v
0L
0J
15
04
13
0+
1T
0S
1R
1<
06
0x"
1`!
1]!
1/!
12!
1_!
1D
1A
10!
0`!
1B
0/!
0A
#50000
0!
0_
0f!
#55000
1!
1_
1f!
0T"
1S"
0e!
03!
0%
#60000
0!
0_
0f!
#65000
1!
1_
1f!
1T"
0S"
10#
01#
02#
0B#
0@#
1?#
1J#
1H#
1u"
1w"
1_"
0W"
1X"
0Y"
1^"
1`"
1b"
0c"
1e!
0X"
1x"
13!
1W!
1U!
1=!
1P!
0<!
0O!
0:!
0M!
06!
07!
18!
1%
1(!
1*!
1r
1}
0s
0~
0u
0"!
0e
0d
1c
1L
1J
05
03
12
0T
0R
1Q
0<
0;
1:
1`!
1/!
1A
#70000
0!
0_
0f!
#75000
1!
1_
1f!
0T"
1S"
0e!
03!
0%
#80000
0!
0_
0f!
#85000
1!
1_
1f!
1T"
0S"
0:#
19#
12#
1B#
1@#
0?#
1G#
0s"
1v"
0i"
1n"
1["
1]"
0^"
0`"
0b"
0_"
1g"
1j"
0m"
0u"
1e!
0p"
0x"
0o"
0r"
0w"
0z"
13!
1X!
0=!
0P!
1<!
1O!
1:!
1M!
16!
1C!
1K!
0B!
0J!
1%
1{"
1s"
1'!
0r
0}
1s
1~
1u
1"!
1e
1l
1w
0m
0x
1I
15
13
02
0-
1,
1T
1R
0Q
1<
08
17
0`!
0^!
0/!
01!
0C
0A
#90000
0!
0_
0f!
#95000
1!
1_
1f!
0T"
1S"
0e!
03!
0%
#100000
0!
0_
0f!
#105000
1!
1_
1f!
1T"
0S"
18#
11#
09#
02#
0B#
0@#
0I#
0G#
1w"
1z"
1o"
1r"
0s"
1i"
0n"
0["
1^"
1`"
1a"
1b"
1c"
1_"
0h"
1m"
0q"
1u"
1y"
0~"
1"#
1&#
1+#
1e!
1.#
1)#
1%#
1|"
0o"
0k"
0t"
1s"
0v"
1p"
0{"
1x"
13!
0X!
0V!
0<!
0O!
0:!
0M!
06!
0C!
0K!
17!
1D!
1L!
1%
0w"
0'!
0)!
0s
0~
0u
0"!
0e
0l
0w
1d
1k
1v
0K
0I
05
03
0,
1+
0T
0R
0<
1;
07
16
1`!
1^!
0_!
0]!
1a!
1b!
1c!
1d!
1/!
11!
00!
02!
1.!
1-!
1,!
1+!
0D
1C
0B
1A
1@
1?
1>
1=
#110000
0!
0_
0f!
#115000
1!
1_
1f!
0T"
1S"
0e!
03!
0%
#120000
0!
0_
0f!
#125000
1!
1_
1f!
1T"
0S"
08#
19#
12#
1B#
1A#
1@#
1?#
0J#
1I#
0H#
1G#
1F#
1E#
1D#
1C#
1-#
1(#
1$#
1{"
0z"
0r"
0U"
1W"
1Y"
0]"
0`"
0a"
0c"
0_"
0y"
1~"
0"#
0&#
0+#
1e!
1X"
0s"
1v"
0{"
1##
0|"
0%#
0)#
0.#
13!
1\!
1[!
1Z!
1Y!
1X!
0W!
1V!
0U!
1=!
1P!
1<!
1O!
1;!
1N!
1:!
1M!
16!
1C!
1K!
0D!
0L!
1%
0$#
0'#
1w"
1#!
1$!
1%!
1&!
1'!
0(!
1)!
0*!
1r
1}
1s
1~
1t
1!!
1u
1"!
1e
1l
1w
0k
0v
0L
1K
0J
1I
1H
1G
1F
1E
15
14
13
12
1,
0+
1T
1S
1R
1Q
1<
17
06
0(#
1,#
0d!
0c!
0b!
0a!
0-#
0+!
0,!
0-!
0.!
0@
0?
0>
0=
#130000
0!
0_
0f!
#135000
1!
1_
1f!
0T"
1S"
0e!
03!
0%
#140000
0!
0_
0f!
#145000
1!
1_
1f!
1T"
0S"
1/#
1:#
00#
01#
02#
0B#
0A#
0?#
0F#
0E#
0D#
0C#
1-#
1(#
0,#
1$#
1'#
1{"
0##
0w"
1o"
1r"
0i"
1_"
0W"
1q"
1["
0^"
1a"
0b"
1c"
1e"
1e!
1t"
1s"
0v"
0$#
0(#
0-#
13!
0\!
0[!
0Z!
0Y!
0=!
0P!
0;!
0N!
0:!
0M!
06!
07!
08!
1B!
1J!
19!
1%
1w"
1z"
0#!
0$!
0%!
0&!
0r
0}
0t
0!!
0u
0"!
0e
0d
0c
1m
1x
1b
0H
0G
0F
0E
05
04
02
1-
0T
0S
0Q
0<
0;
0:
19
18
0{"
1_!
10!
1B
#150000
0!
0_
0f!
#155000
1!
1_
1f!
0T"
1S"
0e!
03!
0%
#160000
0!
0_
0f!
#165000
1!
1_
1f!
1T"
0S"
18#
09#
12#
1A#
0@#
1?#
1=#
1H#
1!#
1$#
1*#
1-#
0w"
0z"
0o"
0r"
0["
1]"
0a"
1b"
0c"
0e"
1f"
1}"
0_"
0q"
0~"
1"#
1+#
1e!
0t"
0s"
1v"
1{"
1.#
1%#
13!
1W!
1?!
1A!
1R!
1T!
1=!
1P!
0<!
0O!
1;!
1N!
16!
0C!
0K!
1D!
1L!
1%
1w"
1(!
1p
1n
1{
1y
1r
1}
0s
0~
1t
1!!
1e
0l
0w
1k
1v
1J
14
03
12
10
1.
0,
1+
1S
0R
1Q
1O
1M
1<
07
16
1b!
1d!
0_!
1-!
1+!
00!
0B
1?
1=
#170000
0!
0_
0f!
#175000
1!
1_
1f!
0T"
1S"
0e!
03!
0%
#180000
0!
0_
0f!
#185000
1!
1_
1f!
1T"
0S"
08#
11#
02#
0A#
1@#
0?#
0=#
1<#
0H#
1E#
1C#
1(#
0}"
0w"
1o"
1r"
1`"
0b"
0f"
1_"
0g"
0j"
1q"
1~"
1&#
1e!
1|"
1s"
0v"
0x"
1)#
13!
1\!
1Z!
0W!
1@!
1S!
0?!
0A!
0R!
0T!
0=!
0P!
1<!
1O!
0;!
0N!
06!
17!
0D!
0L!
1%
1w"
1z"
1t"
1#!
1%!
0(!
1o
1z
0p
0n
0{
0y
0r
0}
1s
1~
0t
0!!
0e
1d
0k
0v
0J
1G
1E
04
13
02
00
1/
0.
0+
0S
1R
0Q
0O
1N
0M
0<
1;
06
0{"
1x"
1c!
0`!
1a!
0|"
1,!
0/!
1.!
1_!
0A
1@
1>
10!
1`!
1B
1/!
0a!
1A
0.!
0@
#190000
0!
0_
0f!
#195000
1!
1_
1f!
0T"
1S"
0e!
03!
0%
#200000
0!
0_
0f!
#205000
1!
1_
1f!
1T"
0S"
12#
1B#
0@#
0<#
1H#
1D#
1h"
1i"
1U"
1W"
0]"
0_"
1e!
1k"
13!
1[!
1W!
0@!
0S!
0<!
0O!
1:!
1M!
16!
1%
1$!
1(!
0o
0z
0s
0~
1u
1"!
1e
1J
1F
15
03
0/
1T
0R
0N
1<
1]!
12!
1D
#210000
0!
0_
0f!
#215000
1!
1_
1f!
0T"
1S"
0e!
03!
0%
#220000
0!
0_
0f!
