simulation/qsim/Trabalho.msim.vcd
$comment
	File created using the following command:
		vcd file Trabalho.msim.vcd -direction
$end
$date
	Sat Jan 25 23:20:08 2025
$end
$version
	ModelSim Version 10.5b
$end
$timescale
	1ps
$end

$scope module trabalho_vhd_vec_tst $end
$var wire 1 ! CLK $end
$var wire 1 " controle_BCD $end
$var wire 1 # reset $end
$var wire 1 $ saida_BCD [15] $end
$var wire 1 % saida_BCD [14] $end
$var wire 1 & saida_BCD [13] $end
$var wire 1 ' saida_BCD [12] $end
$var wire 1 ( saida_BCD [11] $end
$var wire 1 ) saida_BCD [10] $end
$var wire 1 * saida_BCD [9] $end
$var wire 1 + saida_BCD [8] $end
$var wire 1 , saida_BCD [7] $end
$var wire 1 - saida_BCD [6] $end
$var wire 1 . saida_BCD [5] $end
$var wire 1 / saida_BCD [4] $end
$var wire 1 0 saida_BCD [3] $end
$var wire 1 1 saida_BCD [2] $end
$var wire 1 2 saida_BCD [1] $end
$var wire 1 3 saida_BCD [0] $end

$scope module i1 $end
$var wire 1 4 gnd $end
$var wire 1 5 vcc $end
$var wire 1 6 unknown $end
$var wire 1 7 devoe $end
$var wire 1 8 devclrn $end
$var wire 1 9 devpor $end
$var wire 1 : ww_devoe $end
$var wire 1 ; ww_devclrn $end
$var wire 1 < ww_devpor $end
$var wire 1 = ww_reset $end
$var wire 1 > ww_CLK $end
$var wire 1 ? ww_controle_BCD $end
$var wire 1 @ ww_saida_BCD [15] $end
$var wire 1 A ww_saida_BCD [14] $end
$var wire 1 B ww_saida_BCD [13] $end
$var wire 1 C ww_saida_BCD [12] $end
$var wire 1 D ww_saida_BCD [11] $end
$var wire 1 E ww_saida_BCD [10] $end
$var wire 1 F ww_saida_BCD [9] $end
$var wire 1 G ww_saida_BCD [8] $end
$var wire 1 H ww_saida_BCD [7] $end
$var wire 1 I ww_saida_BCD [6] $end
$var wire 1 J ww_saida_BCD [5] $end
$var wire 1 K ww_saida_BCD [4] $end
$var wire 1 L ww_saida_BCD [3] $end
$var wire 1 M ww_saida_BCD [2] $end
$var wire 1 N ww_saida_BCD [1] $end
$var wire 1 O ww_saida_BCD [0] $end
$var wire 1 P \controle_BCD~output_o\ $end
$var wire 1 Q \saida_BCD[0]~output_o\ $end
$var wire 1 R \saida_BCD[1]~output_o\ $end
$var wire 1 S \saida_BCD[2]~output_o\ $end
$var wire 1 T \saida_BCD[3]~output_o\ $end
$var wire 1 U \saida_BCD[4]~output_o\ $end
$var wire 1 V \saida_BCD[5]~output_o\ $end
$var wire 1 W \saida_BCD[6]~output_o\ $end
$var wire 1 X \saida_BCD[7]~output_o\ $end
$var wire 1 Y \saida_BCD[8]~output_o\ $end
$var wire 1 Z \saida_BCD[9]~output_o\ $end
$var wire 1 [ \saida_BCD[10]~output_o\ $end
$var wire 1 \ \saida_BCD[11]~output_o\ $end
$var wire 1 ] \saida_BCD[12]~output_o\ $end
$var wire 1 ^ \saida_BCD[13]~output_o\ $end
$var wire 1 _ \saida_BCD[14]~output_o\ $end
$var wire 1 ` \saida_BCD[15]~output_o\ $end
$var wire 1 a \CLK~input_o\ $end
$var wire 1 b \clock_div|Add0~0_combout\ $end
$var wire 1 c \clock_div|Add0~1\ $end
$var wire 1 d \clock_div|Add0~2_combout\ $end
$var wire 1 e \clock_div|Add0~3\ $end
$var wire 1 f \clock_div|Add0~4_combout\ $end
$var wire 1 g \clock_div|Add0~5\ $end
$var wire 1 h \clock_div|Add0~6_combout\ $end
$var wire 1 i \clock_div|Add0~7\ $end
$var wire 1 j \clock_div|Add0~8_combout\ $end
$var wire 1 k \clock_div|Add0~9\ $end
$var wire 1 l \clock_div|Add0~10_combout\ $end
$var wire 1 m \clock_div|Add0~11\ $end
$var wire 1 n \clock_div|Add0~12_combout\ $end
$var wire 1 o \clock_div|Add0~13\ $end
$var wire 1 p \clock_div|Add0~14_combout\ $end
$var wire 1 q \clock_div|Add0~15\ $end
$var wire 1 r \clock_div|Add0~16_combout\ $end
$var wire 1 s \clock_div|Add0~17\ $end
$var wire 1 t \clock_div|Add0~18_combout\ $end
$var wire 1 u \clock_div|Add0~19\ $end
$var wire 1 v \clock_div|Add0~20_combout\ $end
$var wire 1 w \clock_div|Add0~21\ $end
$var wire 1 x \clock_div|Add0~22_combout\ $end
$var wire 1 y \clock_div|Add0~23\ $end
$var wire 1 z \clock_div|Add0~24_combout\ $end
$var wire 1 { \clock_div|Add0~25\ $end
$var wire 1 | \clock_div|Add0~26_combout\ $end
$var wire 1 } \clock_div|Add0~27\ $end
$var wire 1 ~ \clock_div|Add0~28_combout\ $end
$var wire 1 !! \clock_div|Add0~29\ $end
$var wire 1 "! \clock_div|Add0~30_combout\ $end
$var wire 1 #! \clock_div|Add0~31\ $end
$var wire 1 $! \clock_div|Add0~32_combout\ $end
$var wire 1 %! \clock_div|Add0~33\ $end
$var wire 1 &! \clock_div|Add0~34_combout\ $end
$var wire 1 '! \clock_div|Add0~35\ $end
$var wire 1 (! \clock_div|Add0~36_combout\ $end
$var wire 1 )! \clock_div|Add0~37\ $end
$var wire 1 *! \clock_div|Add0~38_combout\ $end
$var wire 1 +! \clock_div|Equal0~5_combout\ $end
$var wire 1 ,! \clock_div|Add0~39\ $end
$var wire 1 -! \clock_div|Add0~40_combout\ $end
$var wire 1 .! \clock_div|Add0~41\ $end
$var wire 1 /! \clock_div|Add0~42_combout\ $end
$var wire 1 0! \clock_div|Add0~43\ $end
$var wire 1 1! \clock_div|Add0~44_combout\ $end
$var wire 1 2! \clock_div|Add0~45\ $end
$var wire 1 3! \clock_div|Add0~46_combout\ $end
$var wire 1 4! \clock_div|Equal0~6_combout\ $end
$var wire 1 5! \clock_div|Add0~47\ $end
$var wire 1 6! \clock_div|Add0~48_combout\ $end
$var wire 1 7! \clock_div|Add0~49\ $end
$var wire 1 8! \clock_div|Add0~50_combout\ $end
$var wire 1 9! \clock_div|Add0~51\ $end
$var wire 1 :! \clock_div|Add0~52_combout\ $end
$var wire 1 ;! \clock_div|Add0~53\ $end
$var wire 1 <! \clock_div|Add0~54_combout\ $end
$var wire 1 =! \clock_div|Equal0~7_combout\ $end
$var wire 1 >! \clock_div|Add0~55\ $end
$var wire 1 ?! \clock_div|Add0~56_combout\ $end
$var wire 1 @! \clock_div|Add0~57\ $end
$var wire 1 A! \clock_div|Add0~58_combout\ $end
$var wire 1 B! \clock_div|Add0~59\ $end
$var wire 1 C! \clock_div|Add0~60_combout\ $end
$var wire 1 D! \clock_div|Add0~61\ $end
$var wire 1 E! \clock_div|Add0~62_combout\ $end
$var wire 1 F! \clock_div|Equal0~8_combout\ $end
$var wire 1 G! \clock_div|Equal0~9_combout\ $end
$var wire 1 H! \clock_div|contador~0_combout\ $end
$var wire 1 I! \clock_div|Equal0~0_combout\ $end
$var wire 1 J! \clock_div|Equal0~1_combout\ $end
$var wire 1 K! \clock_div|Equal0~2_combout\ $end
$var wire 1 L! \clock_div|Equal0~3_combout\ $end
$var wire 1 M! \clock_div|Equal0~4_combout\ $end
$var wire 1 N! \clock_div|led_status~0_combout\ $end
$var wire 1 O! \clock_div|led_status~q\ $end
$var wire 1 P! \reset~input_o\ $end
$var wire 1 Q! \sinal_LER_final~0_combout\ $end
$var wire 1 R! \PC_in|sinal_PC~4_combout\ $end
$var wire 1 S! \PC_in|sinal_PC~6_combout\ $end
$var wire 1 T! \PC_in|Add0~0_combout\ $end
$var wire 1 U! \PC_in|sinal_PC~5_combout\ $end
$var wire 1 V! \MEM_ini|Mux2~0_combout\ $end
$var wire 1 W! \PC_in|sinal_PC[3]~3_combout\ $end
$var wire 1 X! \MEM_ini|Mux0~0_combout\ $end
$var wire 1 Y! \PC_in|sinal_PC~2_combout\ $end
$var wire 1 Z! \MEM_ini|Mux1~0_combout\ $end
$var wire 1 [! \REG_ini|REG_out[3]~0_combout\ $end
$var wire 1 \! \MEM_ini|Mux9~0_combout\ $end
$var wire 1 ]! \ULA_ini|Mux7~0_combout\ $end
$var wire 1 ^! \ULA_ini|Add0~0_combout\ $end
$var wire 1 _! \REG_ini|REG_out[3]~1_combout\ $end
$var wire 1 `! \ULA_ini|Mux7~1_combout\ $end
$var wire 1 a! \Controle_ini|CARREGA_out~0_combout\ $end
$var wire 1 b! \MEM_ini|Mux8~0_combout\ $end
$var wire 1 c! \ULA_ini|Mux6~0_combout\ $end
$var wire 1 d! \ULA_ini|Add0~1\ $end
$var wire 1 e! \ULA_ini|Add0~2_combout\ $end
$var wire 1 f! \ULA_ini|Mux6~1_combout\ $end
$var wire 1 g! \MEM_ini|Mux3~0_combout\ $end
$var wire 1 h! \ULA_ini|Mux0~0_combout\ $end
$var wire 1 i! \REG_ini|REG_out[7]~2_combout\ $end
$var wire 1 j! \ULA_ini|Mux0~1_combout\ $end
$var wire 1 k! \ULA_ini|Mux0~2_combout\ $end
$var wire 1 l! \MEM_ini|Mux4~0_combout\ $end
$var wire 1 m! \ULA_ini|Mux1~0_combout\ $end
$var wire 1 n! \ULA_ini|Mux2~0_combout\ $end
$var wire 1 o! \ULA_ini|Mux2~1_combout\ $end
$var wire 1 p! \MEM_ini|Mux5~0_combout\ $end
$var wire 1 q! \ULA_ini|Mux3~0_combout\ $end
$var wire 1 r! \MEM_ini|Mux6~0_combout\ $end
$var wire 1 s! \ULA_ini|Mux4~0_combout\ $end
$var wire 1 t! \MEM_ini|Mux7~0_combout\ $end
$var wire 1 u! \ULA_ini|Mux5~0_combout\ $end
$var wire 1 v! \ULA_ini|Add0~3\ $end
$var wire 1 w! \ULA_ini|Add0~4_combout\ $end
$var wire 1 x! \ULA_ini|Mux5~1_combout\ $end
$var wire 1 y! \ULA_ini|Add0~5\ $end
$var wire 1 z! \ULA_ini|Add0~6_combout\ $end
$var wire 1 {! \ULA_ini|Mux4~1_combout\ $end
$var wire 1 |! \ULA_ini|Add0~7\ $end
$var wire 1 }! \ULA_ini|Add0~8_combout\ $end
$var wire 1 ~! \ULA_ini|Mux3~1_combout\ $end
$var wire 1 !" \ULA_ini|Add0~9\ $end
$var wire 1 "" \ULA_ini|Add0~10_combout\ $end
$var wire 1 #" \ULA_ini|Add0~17_combout\ $end
$var wire 1 $" \ULA_ini|Add0~11\ $end
$var wire 1 %" \ULA_ini|Add0~12_combout\ $end
$var wire 1 &" \ULA_ini|Mux1~1_combout\ $end
$var wire 1 '" \ULA_ini|Add0~13\ $end
$var wire 1 (" \ULA_ini|Add0~14_combout\ $end
$var wire 1 )" \ULA_ini|Add0~16_combout\ $end
$var wire 1 *" \Bin2BCD_ini|temp_bcd_var~0_combout\ $end
$var wire 1 +" \Bin2BCD_ini|temp_bcd_var~1_combout\ $end
$var wire 1 ," \Bin2BCD_ini|temp_bcd_var~2_combout\ $end
$var wire 1 -" \Bin2BCD_ini|temp_bcd_var~3_combout\ $end
$var wire 1 ." \Bin2BCD_ini|temp_bcd_var~4_combout\ $end
$var wire 1 /" \Bin2BCD_ini|temp_bcd_var~5_combout\ $end
$var wire 1 0" \Bin2BCD_ini|temp_bcd_var~6_combout\ $end
$var wire 1 1" \Bin2BCD_ini|temp_bcd_var~7_combout\ $end
$var wire 1 2" \Bin2BCD_ini|temp_bcd_var~8_combout\ $end
$var wire 1 3" \Bin2BCD_ini|bcd_out[1]~0_combout\ $end
$var wire 1 4" \Bin2BCD_ini|bcd_out[2]~1_combout\ $end
$var wire 1 5" \Bin2BCD_ini|bcd_out[3]~2_combout\ $end
$var wire 1 6" \Bin2BCD_ini|bcd_out[4]~3_combout\ $end
$var wire 1 7" \Bin2BCD_ini|LessThan2~0_combout\ $end
$var wire 1 8" \Bin2BCD_ini|LessThan3~0_combout\ $end
$var wire 1 9" \Bin2BCD_ini|temp_bcd_var~9_combout\ $end
$var wire 1 :" \Bin2BCD_ini|LessThan0~0_combout\ $end
$var wire 1 ;" \Bin2BCD_ini|temp_bcd_var~10_combout\ $end
$var wire 1 <" \Bin2BCD_ini|temp_bcd_var~11_combout\ $end
$var wire 1 =" \Bin2BCD_ini|temp_bcd_var~12_combout\ $end
$var wire 1 >" \Bin2BCD_ini|temp_bcd_var~13_combout\ $end
$var wire 1 ?" \Bin2BCD_ini|LessThan6~0_combout\ $end
$var wire 1 @" \Bin2BCD_ini|LessThan0~1_combout\ $end
$var wire 1 A" \Bin2BCD_ini|LessThan6~1_combout\ $end
$var wire 1 B" \Bin2BCD_ini|bcd_out[5]~4_combout\ $end
$var wire 1 C" \Bin2BCD_ini|bcd_out[6]~5_combout\ $end
$var wire 1 D" \Bin2BCD_ini|LessThan6~2_combout\ $end
$var wire 1 E" \Bin2BCD_ini|bcd_out[7]~6_combout\ $end
$var wire 1 F" \Bin2BCD_ini|bcd_out[8]~7_combout\ $end
$var wire 1 G" \Bin2BCD_ini|temp_bcd_var~14_combout\ $end
$var wire 1 H" \Bin2BCD_ini|bcd_out[9]~8_combout\ $end
$var wire 1 I" \PC_in|sinal_PC\ [3] $end
$var wire 1 J" \PC_in|sinal_PC\ [2] $end
$var wire 1 K" \PC_in|sinal_PC\ [1] $end
$var wire 1 L" \PC_in|sinal_PC\ [0] $end
$var wire 1 M" \REG_ini|REG_out\ [7] $end
$var wire 1 N" \REG_ini|REG_out\ [6] $end
$var wire 1 O" \REG_ini|REG_out\ [5] $end
$var wire 1 P" \REG_ini|REG_out\ [4] $end
$var wire 1 Q" \REG_ini|REG_out\ [3] $end
$var wire 1 R" \REG_ini|REG_out\ [2] $end
$var wire 1 S" \REG_ini|REG_out\ [1] $end
$var wire 1 T" \REG_ini|REG_out\ [0] $end
$var wire 1 U" \MEM_ini|instrucao_atual\ [15] $end
$var wire 1 V" \MEM_ini|instrucao_atual\ [14] $end
$var wire 1 W" \MEM_ini|instrucao_atual\ [13] $end
$var wire 1 X" \MEM_ini|instrucao_atual\ [12] $end
$var wire 1 Y" \MEM_ini|instrucao_atual\ [11] $end
$var wire 1 Z" \MEM_ini|instrucao_atual\ [10] $end
$var wire 1 [" \MEM_ini|instrucao_atual\ [9] $end
$var wire 1 \" \MEM_ini|instrucao_atual\ [8] $end
$var wire 1 ]" \MEM_ini|instrucao_atual\ [7] $end
$var wire 1 ^" \MEM_ini|instrucao_atual\ [6] $end
$var wire 1 _" \MEM_ini|instrucao_atual\ [5] $end
$var wire 1 `" \MEM_ini|instrucao_atual\ [4] $end
$var wire 1 a" \MEM_ini|instrucao_atual\ [3] $end
$var wire 1 b" \MEM_ini|instrucao_atual\ [2] $end
$var wire 1 c" \MEM_ini|instrucao_atual\ [1] $end
$var wire 1 d" \MEM_ini|instrucao_atual\ [0] $end
$var wire 1 e" \clock_div|contador\ [31] $end
$var wire 1 f" \clock_div|contador\ [30] $end
$var wire 1 g" \clock_div|contador\ [29] $end
$var wire 1 h" \clock_div|contador\ [28] $end
$var wire 1 i" \clock_div|contador\ [27] $end
$var wire 1 j" \clock_div|contador\ [26] $end
$var wire 1 k" \clock_div|contador\ [25] $end
$var wire 1 l" \clock_div|contador\ [24] $end
$var wire 1 m" \clock_div|contador\ [23] $end
$var wire 1 n" \clock_div|contador\ [22] $end
$var wire 1 o" \clock_div|contador\ [21] $end
$var wire 1 p" \clock_div|contador\ [20] $end
$var wire 1 q" \clock_div|contador\ [19] $end
$var wire 1 r" \clock_div|contador\ [18] $end
$var wire 1 s" \clock_div|contador\ [17] $end
$var wire 1 t" \clock_div|contador\ [16] $end
$var wire 1 u" \clock_div|contador\ [15] $end
$var wire 1 v" \clock_div|contador\ [14] $end
$var wire 1 w" \clock_div|contador\ [13] $end
$var wire 1 x" \clock_div|contador\ [12] $end
$var wire 1 y" \clock_div|contador\ [11] $end
$var wire 1 z" \clock_div|contador\ [10] $end
$var wire 1 {" \clock_div|contador\ [9] $end
$var wire 1 |" \clock_div|contador\ [8] $end
$var wire 1 }" \clock_div|contador\ [7] $end
$var wire 1 ~" \clock_div|contador\ [6] $end
$var wire 1 !# \clock_div|contador\ [5] $end
$var wire 1 "# \clock_div|contador\ [4] $end
$var wire 1 ## \clock_div|contador\ [3] $end
$var wire 1 $# \clock_div|contador\ [2] $end
$var wire 1 %# \clock_div|contador\ [1] $end
$var wire 1 &# \clock_div|contador\ [0] $end
$var wire 1 '# \Bin2BCD_ini|ALT_INV_bcd_out[8]~7_combout\ $end
$var wire 1 (# \Bin2BCD_ini|ALT_INV_bcd_out[4]~3_combout\ $end
$var wire 1 )# \Bin2BCD_ini|ALT_INV_bcd_out[1]~0_combout\ $end
$upscope $end
$upscope $end
$enddefinitions $end
#0
$dumpvars
0!
0"
0#
04
15
x6
17
18
19
1:
1;
1<
0=
0>
0?
0P
0Q
0R
0S
0T
0U
0V
0W
0X
0Y
0Z
0[
0\
0]
0^
0_
0`
0a
1b
0c
0d
1e
0f
0g
0h
1i
0j
0k
0l
1m
0n
0o
0p
1q
0r
0s
0t
1u
0v
0w
0x
1y
0z
0{
0|
1}
0~
0!!
0"!
1#!
0$!
0%!
0&!
1'!
0(!
0)!
0*!
1+!
1,!
0-!
0.!
0/!
10!
01!
02!
03!
14!
15!
06!
07!
08!
19!
0:!
0;!
0<!
1=!
1>!
0?!
0@!
0A!
1B!
0C!
0D!
0E!
1F!
1G!
0H!
0I!
1J!
1K!
1L!
0M!
0N!
0O!
0P!
1Q!
0R!
0S!
0T!
0U!
1V!
1W!
0X!
1Y!
0Z!
0[!
1\!
0]!
0^!
1_!
0`!
0a!
1b!
0c!
0d!
0e!
0f!
0g!
0h!
0i!
0j!
0k!
0l!
0m!
0n!
0o!
0p!
0q!
0r!
0s!
1t!
0u!
1v!
0w!
0x!
0y!
0z!
0{!
1|!
0}!
0~!
0!"
0""
0#"
1$"
0%"
0&"
0'"
0("
0)"
0*"
1+"
0,"
0-"
0."
1/"
00"
11"
02"
13"
04"
05"
16"
17"
18"
09"
0:"
1;"
0<"
0="
0>"
1?"
0@"
1A"
0B"
0C"
0D"
0E"
1F"
0G"
0H"
0'#
0(#
0)#
0$
0%
0&
0'
0(
0)
0*
0+
0,
0-
0.
0/
00
01
02
03
0@
0A
0B
0C
0D
0E
0F
0G
0H
0I
0J
0K
0L
0M
0N
0O
0I"
0J"
0K"
0L"
0M"
0N"
0O"
0P"
0Q"
0R"
0S"
0T"
xU"
xV"
xW"
xX"
xY"
0Z"
0["
0\"
x]"
0^"
0_"
0`"
0a"
0b"
0c"
0d"
0e"
0f"
0g"
0h"
0i"
0j"
0k"
0l"
0m"
0n"
0o"
0p"
0q"
0r"
0s"
0t"
0u"
0v"
0w"
0x"
0y"
0z"
0{"
0|"
0}"
0~"
0!#
0"#
0##
0$#
0%#
0&#
$end
#5000
1!
1>
1a
1&#
0b
1c
1I!
1M!
1d
1N!
#10000
0!
0>
0a
#15000
1!
1>
1a
0&#
1O!
0N!
1\"
1L"
1d"
1c"
1b"
1b
0c
0I!
0M!
0d
1w!
1e!
1^!
1R!
1X!
0Y!
0\!
0t!
1]!
0_!
1a!
1c!
1i!
1j!
1n!
1u!
1o!
1k!
0j!
0n!
1`!
1f!
1x!
1N!
0o!
0k!
#20000
0!
0>
0a
#25000
1!
1>
1a
1&#
0b
1c
1I!
1M!
1d
0N!
#30000
0!
0>
0a
#35000
1!
1>
1a
0&#
0O!
1N!
1b
0c
0I!
0M!
0d
0N!
#40000
0!
0>
0a
#45000
1!
1>
1a
1&#
0b
1c
1I!
1M!
1d
1N!
#50000
0!
0>
0a
#55000
1!
1>
1a
0&#
1O!
0N!
1K"
1Z"
0L"
0d"
1T"
1S"
0b"
1R"
1b
0c
0I!
0M!
0d
01"
0e!
0v!
03"
1Y!
1[!
0]!
1_!
0i!
1k!
1o!
0u!
0X!
1\!
0b!
1t!
1)#
1j!
1n!
1#"
1)"
0`!
0x!
0w!
1y!
14"
1N!
1Q
1z!
0o!
0k!
1O
13
1R
0)"
0#"
1S
1N
1M
12
11
#60000
0!
0>
0a
#65000
1!
1>
1a
1&#
0b
1c
1I!
1M!
1d
0N!
#70000
0!
0>
0a
#75000
1!
1>
1a
0&#
0O!
1N!
1b
0c
0I!
0M!
0d
0N!
#80000
0!
0>
0a
#85000
1!
1>
1a
1&#
0b
1c
1I!
1M!
1d
1N!
#90000
0!
0>
0a
#95000
1!
1>
1a
0&#
1O!
0N!
0Z"
1L"
1d"
0T"
0c"
1b"
0R"
1b
0c
0I!
0M!
0d
11"
1e!
1v!
0R!
1S!
1T!
0\!
1r!
0t!
0Y!
0[!
1]!
0_!
1i!
1k!
1o!
1u!
0j!
0n!
1`!
1{!
1w!
0y!
04"
1N!
0Q
0z!
1x!
0o!
0k!
0O
03
0{!
0S
0M
01
#100000
0!
0>
0a
#105000
1!
1>
1a
1&#
0b
1c
1I!
1M!
1d
0N!
#110000
0!
0>
0a
#115000
1!
1>
1a
0&#
0O!
1N!
1b
0c
0I!
0M!
0d
0N!
#120000
0!
0>
0a
#125000
1!
1>
1a
1&#
0b
1c
1I!
1M!
1d
1N!
#130000
0!
0>
0a
#135000
1!
1>
1a
0&#
1O!
0N!
1J"
0K"
0L"
0d"
1T"
1a"
0b"
1R"
1b
0c
0I!
0M!
0d
01"
1s!
1z!
1Y!
0T!
1U!
0V!
1Z!
1\!
0r!
1t!
0U!
1{!
14"
1N!
1Q
1O
13
1S
1M
11
#140000
0!
0>
0a
#145000
1!
1>
1a
1&#
0b
1c
1I!
1M!
1d
0N!
#150000
0!
0>
0a
#155000
1!
1>
1a
0&#
0O!
1N!
1b
0c
0I!
0M!
0d
0N!
#160000
0!
0>
0a
#165000
1!
1>
1a
1&#
0b
1c
1I!
1M!
1d
1N!
#170000
0!
0>
0a
#175000
1!
1>
1a
0&#
1O!
0N!
0\"
1L"
1["
1d"
0a"
1b"
1Q"
1b
0c
0I!
0M!
0d
0/"
0w!
1y!
0^!
1d!
1[!
1R!
1X!
0Y!
0Z!
0\!
0t!
1_!
0c!
0s!
0f!
0{!
0e!
0v!
0z!
0|!
10"
1N!
13"
06"
1}!
1w!
1(#
0)#
0R
1U
0N
1K
02
1/
#180000
0!
0>
0a
#185000
1!
1>
1a
1&#
0b
1c
1I!
1M!
1d
0N!
#190000
0!
0>
0a
#195000
1!
1>
1a
0&#
0O!
1N!
1b
0c
0I!
0M!
0d
0N!
#200000
0!
0>
0a
#205000
1!
1>
1a
1&#
0b
1c
1I!
1M!
1d
1N!
#210000
0!
0>
0a
#215000
1!
1>
1a
0&#
1O!
0N!
1K"
1Z"
0L"
0["
0d"
0S"
0b"
0Q"
1b
0c
0I!
0M!
0d
1z!
1|!
1/"
0w!
1e!
1v!
03"
04"
1^!
0d!
1Y!
0]!
1c!
0i!
1k!
1m!
1o!
1q!
1s!
0u!
0X!
1Z!
1\!
1b!
1r!
1t!
1)#
1~!
1#"
1&"
1)"
0e!
0`!
1w!
0y!
1f!
0x!
00"
0}!
1{!
1N!
13"
14"
16"
0z!
0S
0(#
0)#
1R
0M
1N
01
12
1S
0R
0U
1M
0N
0K
11
02
0/
#220000
0!
0>
0a
#225000
1!
1>
1a
1&#
0b
1c
1I!
1M!
1d
0N!
#230000
0!
0>
0a
#235000
1!
1>
1a
0&#
0O!
1N!
1b
0c
0I!
0M!
0d
0N!
#240000
0!
0>
0a
#245000
1!
1>
1a
1&#
0b
1c
1I!
1M!
1d
1N!
#250000
0!
0>
0a
#255000
1!
1>
1a
0&#
1O!
0N!
0Z"
1L"
1["
1d"
0T"
1c"
1S"
1a"
1b"
0R"
1Q"
1P"
1O"
1N"
1M"
1b
0c
0I!
0M!
0d
1("
1%"
1G"
1""
1:"
1@"
1}!
19"
1="
0/"
11"
0|!
03"
0v!
0R!
0S!
1T!
1V!
0\!
0b!
0r!
0Y!
1i!
0k!
0m!
0o!
0q!
1)#
1U!
0w!
1y!
0}!
1!"
04"
10"
0~!
1<"
0#"
1H"
0&"
0)"
1N!
0Q
1C"
1D"
13"
06"
0""
0$"
1z!
0O
1(#
0)#
03
1R
0%"
1'"
1Z
0S
1N
0("
1F
0M
12
1W
01
1*
0R
1U
1I
0N
1K
1-
02
1/
#260000
0!
0>
0a
#265000
1!
1>
1a
1&#
0b
1c
1I!
1M!
1d
0N!
#270000
0!
0>
0a
#275000
1!
1>
1a
0&#
0O!
1N!
1b
0c
0I!
0M!
0d
0N!
#280000
0!
0>
0a
#285000
1!
1>
1a
1&#
0b
1c
1I!
1M!
1d
1N!
#290000
0!
0>
0a
#295000
1!
1>
1a
0&#
1O!
0N!
0J"
1I"
1\"
0K"
0L"
0d"
0c"
0a"
0P"
0O"
0N"
0M"
1b
0c
0I!
0M!
0d
1("
1>"
1%"
0'"
0G"
1""
1$"
0:"
0@"
1}!
0!"
09"
0="
0z!
1e!
1v!
0^!
1Y!
0T!
1u!
1g!
1X!
0Z!
1b!
1r!
0t!
1x!
1w!
0y!
0""
0<"
0>"
0%"
0H"
0("
0?"
1E"
1N!
0A"
0F"
0E"
1?"
0C"
0D"
1z!
1|!
1'#
0}!
1A"
1F"
1B"
1C"
1X
0Z
0'#
0B"
0C"
1H
0F
0W
0X
1,
0*
1Y
0I
0H
1W
1V
1G
0-
0,
0Y
1I
1J
1+
0W
0V
0G
1.
1-
0I
0J
0+
0.
0-
#300000
0!
0>
0a
#305000
1!
1>
1a
1&#
0b
1c
1I!
1M!
1d
0N!
#310000
0!
0>
0a
#315000
1!
1>
1a
0&#
0O!
1N!
1b
0c
0I!
0M!
0d
0N!
#320000
0!
0>
0a
#325000
1!
1>
1a
1&#
0b
1c
1I!
1M!
1d
1N!
#330000
0!
0>
0a
#335000
1!
1>
1a
0&#
1O!
0N!
1Z"
1L"
0["
1c"
1_"
1a"
0b"
1R"
1b
0c
0I!
0M!
0d
01"
0z!
0|!
1j!
1n!
1""
1("
0e!
0v!
1h!
1R!
0X!
0b!
0g!
1l!
0r!
1t!
0Y!
0i!
1k!
1o!
0u!
0x!
0w!
1y!
1)"
1#"
1}!
14"
1N!
1z!
1S
1M
11
#340000
0!
0>
0a
#345000
1!
1>
1a
1&#
0b
1c
1I!
1M!
1d
0N!
#350000
0!
0>
0a
#355000
1!
1>
1a
0&#
0O!
1N!
1b
0c
0I!
0M!
0d
0N!
#360000
0!
0>
0a
#365000
1!
1>
1a
1&#
0b
1c
1I!
1M!
1d
1N!
#370000
0!
0>
0a
#375000
1!
1>
1a
0&#
1O!
0N!
1K"
0Z"
0L"
0c"
0_"
1^"
0a"
1b"
0R"
1O"
1M"
1b
0c
0I!
0M!
0d
1:"
1@"
11"
0z!
1%"
0h!
1e!
1v!
1Y!
0[!
0_!
1i!
1m!
1u!
1\!
0l!
0t!
1~!
1w!
0y!
1&"
0{!
04"
0A"
0F"
1N!
1'#
1B"
1C"
1z!
1|!
1x!
0}!
1{!
0S
1Y
0~!
0M
1W
1V
1G
01
1I
1J
1+
1.
1-
#380000
0!
0>
0a
#385000
1!
1>
1a
1&#
0b
1c
1I!
1M!
1d
0N!
#390000
0!
0>
0a
#395000
1!
1>
1a
0&#
0O!
1N!
1b
0c
0I!
0M!
0d
0N!
#400000
0!
0>
0a
#405000
1!
1>
1a
1&#
0b
1c
1I!
1M!
1d
1N!
#410000
0!
0>
0a
#415000
1!
1>
1a
0&#
1O!
0N!
1L"
1d"
0^"
0b"
1R"
1N"
1b
0c
0I!
0M!
0d
1*"
1G"
01"
1]!
1^!
0R!
1S!
1T!
0Y!
1`!
14"
1H"
1-"
1/"
07"
0;"
1N!
1A"
1F"
00"
11"
12"
0B"
0C"
1D"
0'#
04"
15"
1B"
1Z
1S
1F
1M
0W
0V
11
1*
0Y
0I
0J
1V
1T
0S
0G
0.
0-
1J
1L
0M
0+
01
10
1.
#420000
0!
0>
0a
#425000
1!
1>
1a
1&#
0b
1c
1I!
1M!
1d
0N!
#430000
0!
0>
0a
#435000
1!
1>
1a
0&#
0O!
1N!
1b
0c
0I!
0M!
0d
0N!
#440000
0!
0>
0a
#445000
1!
1>
1a
1&#
0b
1c
1I!
1M!
1d
1N!
#450000
0!
0>
0a
#455000
1!
1>
1a
0&#
1O!
0N!
1J"
0K"
0L"
1T"
1b
0c
0I!
0M!
0d
0^!
1d!
1Y!
0T!
1g!
0U!
1X!
1b!
1l!
1p!
1r!
1t!
1U!
0e!
0v!
0`!
1N!
1Q
0w!
1y!
0f!
1O
13
0z!
0|!
0x!
1}!
0{!
1~!
#460000
0!
0>
0a
#465000
1!
1>
1a
1&#
0b
1c
1I!
1M!
1d
0N!
#470000
0!
0>
0a
#475000
1!
1>
1a
0&#
0O!
1N!
1b
0c
0I!
0M!
0d
0N!
#480000
0!
0>
0a
#485000
1!
1>
1a
1&#
0b
1c
1I!
1M!
1d
1N!
#490000
0!
0>
0a
