simulation/qsim/Trabalho.msim.vcd
$comment
	File created using the following command:
		vcd file Trabalho.msim.vcd -direction
$end
$date
	Fri Jan 24 17:07:42 2025
$end
$version
	ModelSim Version 10.5b
$end
$timescale
	1ps
$end

$scope module trabalho_vhd_vec_tst $end
$var wire 1 ! CLK $end
$var wire 1 " controle_BCD $end
$var wire 1 # reset $end
$var wire 1 $ saida_BCD $end
$var wire 1 % valor_Memoria [15] $end
$var wire 1 & valor_Memoria [14] $end
$var wire 1 ' valor_Memoria [13] $end
$var wire 1 ( valor_Memoria [12] $end
$var wire 1 ) valor_Memoria [11] $end
$var wire 1 * valor_Memoria [10] $end
$var wire 1 + valor_Memoria [9] $end
$var wire 1 , valor_Memoria [8] $end
$var wire 1 - valor_Memoria [7] $end
$var wire 1 . valor_Memoria [6] $end
$var wire 1 / valor_Memoria [5] $end
$var wire 1 0 valor_Memoria [4] $end
$var wire 1 1 valor_Memoria [3] $end
$var wire 1 2 valor_Memoria [2] $end
$var wire 1 3 valor_Memoria [1] $end
$var wire 1 4 valor_Memoria [0] $end
$var wire 1 5 valor_OPCODE [2] $end
$var wire 1 6 valor_OPCODE [1] $end
$var wire 1 7 valor_OPCODE [0] $end
$var wire 1 8 valor_PC [3] $end
$var wire 1 9 valor_PC [2] $end
$var wire 1 : valor_PC [1] $end
$var wire 1 ; valor_PC [0] $end
$var wire 1 < valor_Y [7] $end
$var wire 1 = valor_Y [6] $end
$var wire 1 > valor_Y [5] $end
$var wire 1 ? valor_Y [4] $end
$var wire 1 @ valor_Y [3] $end
$var wire 1 A valor_Y [2] $end
$var wire 1 B valor_Y [1] $end
$var wire 1 C valor_Y [0] $end

$scope module i1 $end
$var wire 1 D gnd $end
$var wire 1 E vcc $end
$var wire 1 F unknown $end
$var wire 1 G devoe $end
$var wire 1 H devclrn $end
$var wire 1 I devpor $end
$var wire 1 J ww_devoe $end
$var wire 1 K ww_devclrn $end
$var wire 1 L ww_devpor $end
$var wire 1 M ww_reset $end
$var wire 1 N ww_CLK $end
$var wire 1 O ww_controle_BCD $end
$var wire 1 P ww_saida_BCD $end
$var wire 1 Q ww_valor_PC [3] $end
$var wire 1 R ww_valor_PC [2] $end
$var wire 1 S ww_valor_PC [1] $end
$var wire 1 T ww_valor_PC [0] $end
$var wire 1 U ww_valor_Memoria [15] $end
$var wire 1 V ww_valor_Memoria [14] $end
$var wire 1 W ww_valor_Memoria [13] $end
$var wire 1 X ww_valor_Memoria [12] $end
$var wire 1 Y ww_valor_Memoria [11] $end
$var wire 1 Z ww_valor_Memoria [10] $end
$var wire 1 [ ww_valor_Memoria [9] $end
$var wire 1 \ ww_valor_Memoria [8] $end
$var wire 1 ] ww_valor_Memoria [7] $end
$var wire 1 ^ ww_valor_Memoria [6] $end
$var wire 1 _ ww_valor_Memoria [5] $end
$var wire 1 ` ww_valor_Memoria [4] $end
$var wire 1 a ww_valor_Memoria [3] $end
$var wire 1 b ww_valor_Memoria [2] $end
$var wire 1 c ww_valor_Memoria [1] $end
$var wire 1 d ww_valor_Memoria [0] $end
$var wire 1 e ww_valor_OPCODE [2] $end
$var wire 1 f ww_valor_OPCODE [1] $end
$var wire 1 g ww_valor_OPCODE [0] $end
$var wire 1 h ww_valor_Y [7] $end
$var wire 1 i ww_valor_Y [6] $end
$var wire 1 j ww_valor_Y [5] $end
$var wire 1 k ww_valor_Y [4] $end
$var wire 1 l ww_valor_Y [3] $end
$var wire 1 m ww_valor_Y [2] $end
$var wire 1 n ww_valor_Y [1] $end
$var wire 1 o ww_valor_Y [0] $end
$var wire 1 p \controle_BCD~output_o\ $end
$var wire 1 q \saida_BCD~output_o\ $end
$var wire 1 r \valor_PC[0]~output_o\ $end
$var wire 1 s \valor_PC[1]~output_o\ $end
$var wire 1 t \valor_PC[2]~output_o\ $end
$var wire 1 u \valor_PC[3]~output_o\ $end
$var wire 1 v \valor_Memoria[0]~output_o\ $end
$var wire 1 w \valor_Memoria[1]~output_o\ $end
$var wire 1 x \valor_Memoria[2]~output_o\ $end
$var wire 1 y \valor_Memoria[3]~output_o\ $end
$var wire 1 z \valor_Memoria[4]~output_o\ $end
$var wire 1 { \valor_Memoria[5]~output_o\ $end
$var wire 1 | \valor_Memoria[6]~output_o\ $end
$var wire 1 } \valor_Memoria[7]~output_o\ $end
$var wire 1 ~ \valor_Memoria[8]~output_o\ $end
$var wire 1 !! \valor_Memoria[9]~output_o\ $end
$var wire 1 "! \valor_Memoria[10]~output_o\ $end
$var wire 1 #! \valor_Memoria[11]~output_o\ $end
$var wire 1 $! \valor_Memoria[12]~output_o\ $end
$var wire 1 %! \valor_Memoria[13]~output_o\ $end
$var wire 1 &! \valor_Memoria[14]~output_o\ $end
$var wire 1 '! \valor_Memoria[15]~output_o\ $end
$var wire 1 (! \valor_OPCODE[0]~output_o\ $end
$var wire 1 )! \valor_OPCODE[1]~output_o\ $end
$var wire 1 *! \valor_OPCODE[2]~output_o\ $end
$var wire 1 +! \valor_Y[0]~output_o\ $end
$var wire 1 ,! \valor_Y[1]~output_o\ $end
$var wire 1 -! \valor_Y[2]~output_o\ $end
$var wire 1 .! \valor_Y[3]~output_o\ $end
$var wire 1 /! \valor_Y[4]~output_o\ $end
$var wire 1 0! \valor_Y[5]~output_o\ $end
$var wire 1 1! \valor_Y[6]~output_o\ $end
$var wire 1 2! \valor_Y[7]~output_o\ $end
$var wire 1 3! \CLK~input_o\ $end
$var wire 1 4! \clock_div|Add0~0_combout\ $end
$var wire 1 5! \clock_div|Add0~1\ $end
$var wire 1 6! \clock_div|Add0~2_combout\ $end
$var wire 1 7! \clock_div|Add0~3\ $end
$var wire 1 8! \clock_div|Add0~4_combout\ $end
$var wire 1 9! \clock_div|Add0~5\ $end
$var wire 1 :! \clock_div|Add0~6_combout\ $end
$var wire 1 ;! \clock_div|Add0~7\ $end
$var wire 1 <! \clock_div|Add0~8_combout\ $end
$var wire 1 =! \clock_div|Add0~9\ $end
$var wire 1 >! \clock_div|Add0~10_combout\ $end
$var wire 1 ?! \clock_div|Add0~11\ $end
$var wire 1 @! \clock_div|Add0~12_combout\ $end
$var wire 1 A! \clock_div|Add0~13\ $end
$var wire 1 B! \clock_div|Add0~14_combout\ $end
$var wire 1 C! \clock_div|Add0~15\ $end
$var wire 1 D! \clock_div|Add0~16_combout\ $end
$var wire 1 E! \clock_div|Add0~17\ $end
$var wire 1 F! \clock_div|Add0~18_combout\ $end
$var wire 1 G! \clock_div|Add0~19\ $end
$var wire 1 H! \clock_div|Add0~20_combout\ $end
$var wire 1 I! \clock_div|Add0~21\ $end
$var wire 1 J! \clock_div|Add0~22_combout\ $end
$var wire 1 K! \clock_div|Add0~23\ $end
$var wire 1 L! \clock_div|Add0~24_combout\ $end
$var wire 1 M! \clock_div|Add0~25\ $end
$var wire 1 N! \clock_div|Add0~26_combout\ $end
$var wire 1 O! \clock_div|Add0~27\ $end
$var wire 1 P! \clock_div|Add0~28_combout\ $end
$var wire 1 Q! \clock_div|Add0~29\ $end
$var wire 1 R! \clock_div|Add0~30_combout\ $end
$var wire 1 S! \clock_div|Add0~31\ $end
$var wire 1 T! \clock_div|Add0~32_combout\ $end
$var wire 1 U! \clock_div|Add0~33\ $end
$var wire 1 V! \clock_div|Add0~34_combout\ $end
$var wire 1 W! \clock_div|Add0~35\ $end
$var wire 1 X! \clock_div|Add0~36_combout\ $end
$var wire 1 Y! \clock_div|Add0~37\ $end
$var wire 1 Z! \clock_div|Add0~38_combout\ $end
$var wire 1 [! \clock_div|Equal0~5_combout\ $end
$var wire 1 \! \clock_div|Add0~39\ $end
$var wire 1 ]! \clock_div|Add0~40_combout\ $end
$var wire 1 ^! \clock_div|Add0~41\ $end
$var wire 1 _! \clock_div|Add0~42_combout\ $end
$var wire 1 `! \clock_div|Add0~43\ $end
$var wire 1 a! \clock_div|Add0~44_combout\ $end
$var wire 1 b! \clock_div|Add0~45\ $end
$var wire 1 c! \clock_div|Add0~46_combout\ $end
$var wire 1 d! \clock_div|Equal0~6_combout\ $end
$var wire 1 e! \clock_div|Add0~47\ $end
$var wire 1 f! \clock_div|Add0~48_combout\ $end
$var wire 1 g! \clock_div|Add0~49\ $end
$var wire 1 h! \clock_div|Add0~50_combout\ $end
$var wire 1 i! \clock_div|Add0~51\ $end
$var wire 1 j! \clock_div|Add0~52_combout\ $end
$var wire 1 k! \clock_div|Add0~53\ $end
$var wire 1 l! \clock_div|Add0~54_combout\ $end
$var wire 1 m! \clock_div|Equal0~7_combout\ $end
$var wire 1 n! \clock_div|Add0~55\ $end
$var wire 1 o! \clock_div|Add0~56_combout\ $end
$var wire 1 p! \clock_div|Add0~57\ $end
$var wire 1 q! \clock_div|Add0~58_combout\ $end
$var wire 1 r! \clock_div|Add0~59\ $end
$var wire 1 s! \clock_div|Add0~60_combout\ $end
$var wire 1 t! \clock_div|Add0~61\ $end
$var wire 1 u! \clock_div|Add0~62_combout\ $end
$var wire 1 v! \clock_div|Equal0~8_combout\ $end
$var wire 1 w! \clock_div|Equal0~9_combout\ $end
$var wire 1 x! \clock_div|contador~0_combout\ $end
$var wire 1 y! \clock_div|Equal0~0_combout\ $end
$var wire 1 z! \clock_div|Equal0~1_combout\ $end
$var wire 1 {! \clock_div|Equal0~2_combout\ $end
$var wire 1 |! \clock_div|Equal0~3_combout\ $end
$var wire 1 }! \clock_div|Equal0~4_combout\ $end
$var wire 1 ~! \clock_div|led_status~0_combout\ $end
$var wire 1 !" \clock_div|led_status~q\ $end
$var wire 1 "" \PC_in|sinal_PC~5_combout\ $end
$var wire 1 #" \PC_in|Add0~0_combout\ $end
$var wire 1 $" \PC_in|sinal_PC~4_combout\ $end
$var wire 1 %" \MEM_ini|Mux0~0_combout\ $end
$var wire 1 &" \reset~input_o\ $end
$var wire 1 '" \sinal_LER_final~0_combout\ $end
$var wire 1 (" \MEM_ini|Mux2~0_combout\ $end
$var wire 1 )" \Controle_ini|Equal0~0_combout\ $end
$var wire 1 *" \PC_in|sinal_PC~3_combout\ $end
$var wire 1 +" \MEM_ini|Mux1~0_combout\ $end
$var wire 1 ," \PC_in|sinal_PC~2_combout\ $end
$var wire 1 -" \MEM_ini|Mux9~0_combout\ $end
$var wire 1 ." \MEM_ini|Mux8~0_combout\ $end
$var wire 1 /" \MEM_ini|Mux7~0_combout\ $end
$var wire 1 0" \MEM_ini|Mux6~0_combout\ $end
$var wire 1 1" \MEM_ini|Mux5~0_combout\ $end
$var wire 1 2" \MEM_ini|Mux5~1_combout\ $end
$var wire 1 3" \MEM_ini|Mux4~0_combout\ $end
$var wire 1 4" \PC_in|sinal_PC\ [3] $end
$var wire 1 5" \PC_in|sinal_PC\ [2] $end
$var wire 1 6" \PC_in|sinal_PC\ [1] $end
$var wire 1 7" \PC_in|sinal_PC\ [0] $end
$var wire 1 8" \MEM_ini|instrucao_atual\ [15] $end
$var wire 1 9" \MEM_ini|instrucao_atual\ [14] $end
$var wire 1 :" \MEM_ini|instrucao_atual\ [13] $end
$var wire 1 ;" \MEM_ini|instrucao_atual\ [12] $end
$var wire 1 <" \MEM_ini|instrucao_atual\ [11] $end
$var wire 1 =" \MEM_ini|instrucao_atual\ [10] $end
$var wire 1 >" \MEM_ini|instrucao_atual\ [9] $end
$var wire 1 ?" \MEM_ini|instrucao_atual\ [8] $end
$var wire 1 @" \MEM_ini|instrucao_atual\ [7] $end
$var wire 1 A" \MEM_ini|instrucao_atual\ [6] $end
$var wire 1 B" \MEM_ini|instrucao_atual\ [5] $end
$var wire 1 C" \MEM_ini|instrucao_atual\ [4] $end
$var wire 1 D" \MEM_ini|instrucao_atual\ [3] $end
$var wire 1 E" \MEM_ini|instrucao_atual\ [2] $end
$var wire 1 F" \MEM_ini|instrucao_atual\ [1] $end
$var wire 1 G" \MEM_ini|instrucao_atual\ [0] $end
$var wire 1 H" \clock_div|contador\ [31] $end
$var wire 1 I" \clock_div|contador\ [30] $end
$var wire 1 J" \clock_div|contador\ [29] $end
$var wire 1 K" \clock_div|contador\ [28] $end
$var wire 1 L" \clock_div|contador\ [27] $end
$var wire 1 M" \clock_div|contador\ [26] $end
$var wire 1 N" \clock_div|contador\ [25] $end
$var wire 1 O" \clock_div|contador\ [24] $end
$var wire 1 P" \clock_div|contador\ [23] $end
$var wire 1 Q" \clock_div|contador\ [22] $end
$var wire 1 R" \clock_div|contador\ [21] $end
$var wire 1 S" \clock_div|contador\ [20] $end
$var wire 1 T" \clock_div|contador\ [19] $end
$var wire 1 U" \clock_div|contador\ [18] $end
$var wire 1 V" \clock_div|contador\ [17] $end
$var wire 1 W" \clock_div|contador\ [16] $end
$var wire 1 X" \clock_div|contador\ [15] $end
$var wire 1 Y" \clock_div|contador\ [14] $end
$var wire 1 Z" \clock_div|contador\ [13] $end
$var wire 1 [" \clock_div|contador\ [12] $end
$var wire 1 \" \clock_div|contador\ [11] $end
$var wire 1 ]" \clock_div|contador\ [10] $end
$var wire 1 ^" \clock_div|contador\ [9] $end
$var wire 1 _" \clock_div|contador\ [8] $end
$var wire 1 `" \clock_div|contador\ [7] $end
$var wire 1 a" \clock_div|contador\ [6] $end
$var wire 1 b" \clock_div|contador\ [5] $end
$var wire 1 c" \clock_div|contador\ [4] $end
$var wire 1 d" \clock_div|contador\ [3] $end
$var wire 1 e" \clock_div|contador\ [2] $end
$var wire 1 f" \clock_div|contador\ [1] $end
$var wire 1 g" \clock_div|contador\ [0] $end
$upscope $end
$upscope $end
$enddefinitions $end
#0
$dumpvars
0!
0"
0#
0$
0D
1E
xF
1G
1H
1I
1J
1K
1L
0M
0N
0O
0P
0p
0q
0r
0s
0t
0u
0v
0w
0x
0y
0z
0{
0|
0}
0~
0!!
0"!
0#!
0$!
0%!
0&!
0'!
0(!
0)!
0*!
0+!
0,!
0-!
0.!
0/!
00!
01!
02!
03!
14!
05!
06!
17!
08!
09!
0:!
1;!
0<!
0=!
0>!
1?!
0@!
0A!
0B!
1C!
0D!
0E!
0F!
1G!
0H!
0I!
0J!
1K!
0L!
0M!
0N!
1O!
0P!
0Q!
0R!
1S!
0T!
0U!
0V!
1W!
0X!
0Y!
0Z!
1[!
1\!
0]!
0^!
0_!
1`!
0a!
0b!
0c!
1d!
1e!
0f!
0g!
0h!
1i!
0j!
0k!
0l!
1m!
1n!
0o!
0p!
0q!
1r!
0s!
0t!
0u!
1v!
1w!
0x!
0y!
1z!
1{!
1|!
0}!
0~!
0!"
0""
0#"
0$"
0%"
0&"
1'"
1("
0)"
0*"
0+"
1,"
1-"
1."
1/"
00"
01"
02"
03"
0Q
0R
0S
0T
0U
0V
0W
0X
0Y
0Z
0[
0\
0]
0^
0_
0`
0a
0b
0c
0d
0e
0f
0g
0h
0i
0j
0k
0l
0m
0n
0o
04"
05"
06"
07"
x8"
x9"
x:"
x;"
x<"
0="
0>"
0?"
x@"
0A"
0B"
0C"
0D"
0E"
0F"
0G"
0H"
0I"
0J"
0K"
0L"
0M"
0N"
0O"
0P"
0Q"
0R"
0S"
0T"
0U"
0V"
0W"
0X"
0Y"
0Z"
0["
0\"
0]"
0^"
0_"
0`"
0a"
0b"
0c"
0d"
0e"
0f"
0g"
0%
0&
0'
0(
0)
0*
0+
0,
0-
0.
0/
00
01
02
03
04
05
06
07
08
09
0:
0;
0<
0=
0>
0?
0@
0A
0B
0C
$end
#5000
1!
1N
13!
1g"
04!
15!
1y!
1}!
16!
1~!
#10000
0!
0N
03!
#15000
1!
1N
13!
0g"
1!"
0~!
1?"
17"
1G"
1F"
1E"
14!
05!
0y!
0}!
06!
1%"
1*"
0-"
0/"
0,"
1~!
1x
1-!
1w
1,!
1v
1+!
1r
1~
1(!
1b
1m
1c
1n
1d
1o
1T
1\
1g
14
13
12
1,
1C
1B
1A
1;
17
#20000
0!
0N
03!
#25000
1!
1N
13!
1g"
04!
15!
1y!
1}!
16!
0~!
#30000
0!
0N
03!
#35000
1!
1N
13!
0g"
0!"
1~!
14!
05!
0y!
0}!
06!
0~!
#40000
0!
0N
03!
#45000
1!
1N
13!
1g"
04!
15!
1y!
1}!
16!
1~!
#50000
0!
0N
03!
#55000
1!
1N
13!
0g"
1!"
0~!
1="
16"
07"
0G"
0E"
14!
05!
0y!
0}!
06!
0%"
1-"
0."
1/"
1,"
1~!
0x
0-!
0v
0+!
0r
1s
1"!
1*!
0b
0m
0d
0o
0T
1S
1Z
1e
04
02
1*
0C
0A
0;
1:
15
#60000
0!
0N
03!
#65000
1!
1N
13!
1g"
04!
15!
1y!
1}!
16!
0~!
#70000
0!
0N
03!
#75000
1!
1N
13!
0g"
0!"
1~!
14!
05!
0y!
0}!
06!
0~!
#80000
0!
0N
03!
#85000
1!
1N
13!
1g"
04!
15!
1y!
1}!
16!
1~!
#90000
0!
0N
03!
#95000
1!
1N
13!
0g"
1!"
0~!
0="
17"
1G"
0F"
1E"
14!
05!
0y!
0}!
06!
1""
1#"
0*"
0-"
0/"
10"
0,"
1~!
1x
1-!
0w
0,!
1v
1+!
1r
0"!
0*!
1b
1m
0c
0n
1d
1o
1T
0Z
0e
14
03
12
0*
1C
0B
1A
1;
05
#100000
0!
0N
03!
#105000
1!
1N
13!
1g"
04!
15!
1y!
1}!
16!
0~!
#110000
0!
0N
03!
#115000
1!
1N
13!
0g"
0!"
1~!
14!
05!
0y!
0}!
06!
0~!
#120000
0!
0N
03!
#125000
1!
1N
13!
1g"
04!
15!
1y!
1}!
16!
1~!
#130000
0!
0N
03!
#135000
1!
1N
13!
0g"
1!"
0~!
15"
06"
07"
0G"
0E"
1D"
14!
05!
0y!
0}!
06!
1,"
0#"
1$"
0("
1+"
1-"
1/"
00"
0$"
1~!
1y
1.!
0x
0-!
0v
0+!
0r
0s
1t
1a
1l
0b
0m
0d
0o
0T
0S
1R
04
02
11
0C
0A
1@
0;
0:
19
#140000
0!
0N
03!
#145000
1!
1N
13!
1g"
04!
15!
1y!
1}!
16!
0~!
#150000
0!
0N
03!
#155000
1!
1N
13!
0g"
0!"
1~!
14!
05!
0y!
0}!
06!
0~!
#160000
0!
0N
03!
#165000
1!
1N
13!
1g"
04!
15!
1y!
1}!
16!
1~!
#170000
0!
0N
03!
#175000
1!
1N
13!
0g"
1!"
0~!
0?"
1>"
17"
1G"
1E"
0D"
14!
05!
0y!
0}!
06!
1%"
1*"
0+"
0-"
0/"
0,"
1~!
0y
0.!
1x
1-!
1v
1+!
1r
1!!
1)!
0~
0(!
0a
0l
1b
1m
1d
1o
1T
1[
1f
0\
0g
14
12
01
0,
1+
1C
1A
0@
1;
07
16
#180000
0!
0N
03!
#185000
1!
1N
13!
1g"
04!
15!
1y!
1}!
16!
0~!
#190000
0!
0N
03!
#195000
1!
1N
13!
0g"
0!"
1~!
14!
05!
0y!
0}!
06!
0~!
#200000
0!
0N
03!
#205000
1!
1N
13!
1g"
04!
15!
1y!
1}!
16!
1~!
#210000
0!
0N
03!
#215000
1!
1N
13!
0g"
1!"
0~!
1="
16"
0>"
07"
0G"
0E"
14!
05!
0y!
0}!
06!
0%"
1+"
1-"
1."
1/"
10"
1,"
1~!
0x
0-!
0v
0+!
0r
0!!
0)!
1s
1"!
1*!
0b
0m
0d
0o
0T
0[
0f
1S
1Z
1e
04
02
0+
1*
0C
0A
0;
1:
06
15
#220000
0!
0N
03!
#225000
1!
1N
13!
1g"
04!
15!
1y!
1}!
16!
0~!
#230000
0!
0N
03!
#235000
1!
1N
13!
0g"
0!"
1~!
14!
05!
0y!
0}!
06!
0~!
#240000
0!
0N
03!
#245000
1!
1N
13!
1g"
04!
15!
1y!
1}!
16!
1~!
#250000
0!
0N
03!
#255000
1!
1N
13!
0g"
1!"
0~!
0="
1>"
17"
1G"
1F"
1E"
1D"
14!
05!
0y!
0}!
06!
0""
1#"
1("
0*"
0-"
0."
00"
0,"
1$"
1~!
1y
1.!
1x
1-!
1w
1,!
1v
1+!
1r
1!!
1)!
0"!
0*!
1a
1l
1b
1m
1c
1n
1d
1o
1T
1[
1f
0Z
0e
14
13
12
11
1+
0*
1C
1B
1A
1@
1;
16
05
#260000
0!
0N
03!
#265000
1!
1N
13!
1g"
04!
15!
1y!
1}!
16!
0~!
#270000
0!
0N
03!
#275000
1!
1N
13!
0g"
0!"
1~!
14!
05!
0y!
0}!
06!
0~!
#280000
0!
0N
03!
#285000
1!
1N
13!
1g"
04!
15!
1y!
1}!
16!
1~!
#290000
0!
0N
03!
#295000
1!
1N
13!
0g"
1!"
0~!
05"
14"
1?"
06"
07"
0G"
0F"
0D"
14!
05!
0y!
0}!
06!
0#"
1,"
12"
1%"
0+"
1."
0/"
10"
1~!
0y
0.!
0w
0,!
0v
0+!
0r
0s
1~
1(!
1u
0t
0a
0l
0c
0n
0d
0o
0T
0S
1\
1g
1Q
0R
04
03
01
1,
0C
0B
0@
0;
0:
09
18
17
#300000
0!
0N
03!
#305000
1!
1N
13!
1g"
04!
15!
1y!
1}!
16!
0~!
#310000
0!
0N
03!
#315000
1!
1N
13!
0g"
0!"
1~!
14!
05!
0y!
0}!
06!
0~!
#320000
0!
0N
03!
#325000
1!
1N
13!
1g"
04!
15!
1y!
1}!
16!
1~!
#330000
0!
0N
03!
#335000
1!
1N
13!
0g"
1!"
0~!
1="
0>"
17"
1F"
0E"
1D"
1B"
14!
05!
0y!
0}!
06!
0%"
1*"
0."
1/"
00"
02"
13"
0,"
1~!
1{
1}
10!
12!
1y
1.!
0x
0-!
1w
1,!
1r
0!!
0)!
1"!
1*!
1_
1]
1j
1h
1a
1l
0b
0m
1c
1n
1T
0[
0f
1Z
1e
13
02
11
1/
1-
0+
1*
1B
0A
1@
1>
1<
1;
06
15
#340000
0!
0N
03!
#345000
1!
1N
13!
1g"
04!
15!
1y!
1}!
16!
0~!
#350000
0!
0N
03!
#355000
1!
1N
13!
0g"
0!"
1~!
14!
05!
0y!
0}!
06!
0~!
#360000
0!
0N
03!
#365000
1!
1N
13!
1g"
04!
15!
1y!
1}!
16!
1~!
#370000
0!
0N
03!
#375000
1!
1N
13!
0g"
1!"
0~!
0="
16"
07"
0F"
1E"
0D"
0B"
1A"
14!
05!
0y!
0}!
06!
1-"
0/"
03"
1,"
1~!
1|
11!
0{
0}
00!
02!
0y
0.!
1x
1-!
0w
0,!
0r
1s
0"!
0*!
1^
1i
0_
0]
0j
0h
0a
0l
1b
1m
0c
0n
0T
1S
0Z
0e
03
12
01
0/
1.
0-
0*
0B
1A
0@
0>
1=
0<
0;
1:
05
#380000
0!
0N
03!
#385000
1!
1N
13!
1g"
04!
15!
1y!
1}!
16!
0~!
#390000
0!
0N
03!
#395000
1!
1N
13!
0g"
0!"
1~!
14!
05!
0y!
0}!
06!
0~!
#400000
0!
0N
03!
#405000
1!
1N
13!
1g"
04!
15!
1y!
1}!
16!
1~!
#410000
0!
0N
03!
#415000
1!
1N
13!
0g"
1!"
0~!
17"
1G"
0E"
0A"
14!
05!
0y!
0}!
06!
1""
1#"
0*"
0,"
1~!
0|
01!
0x
0-!
1v
1+!
1r
0^
0i
0b
0m
1d
1o
1T
14
02
0.
1C
0A
0=
1;
#420000
0!
0N
03!
#425000
1!
1N
13!
1g"
04!
15!
1y!
1}!
16!
0~!
#430000
0!
0N
03!
#435000
1!
1N
13!
0g"
0!"
1~!
14!
05!
0y!
0}!
06!
0~!
#440000
0!
0N
03!
#445000
1!
1N
13!
1g"
04!
15!
1y!
1}!
16!
1~!
#450000
0!
0N
03!
#455000
1!
1N
13!
0g"
1!"
0~!
15"
06"
07"
14!
05!
0y!
0}!
06!
1,"
0#"
12"
0$"
1%"
1."
1/"
10"
11"
13"
1$"
1~!
0r
0s
1t
0T
0S
1R
0;
0:
19
#460000
0!
0N
03!
#465000
1!
1N
13!
1g"
04!
15!
1y!
1}!
16!
0~!
#470000
0!
0N
03!
#475000
1!
1N
13!
0g"
0!"
1~!
14!
05!
0y!
0}!
06!
0~!
#480000
0!
0N
03!
#485000
1!
1N
13!
1g"
04!
15!
1y!
1}!
16!
1~!
#490000
0!
0N
03!
#495000
1!
1N
13!
0g"
1!"
0~!
1="
17"
1F"
1E"
1D"
1C"
1B"
1A"
14!
05!
0y!
0}!
06!
0%"
1*"
0."
0/"
00"
01"
02"
03"
0,"
1~!
1|
11!
1{
1}
10!
12!
1z
1/!
1y
1.!
1x
1-!
1w
1,!
1r
1"!
1*!
1^
1i
1_
1]
1j
1h
1`
1k
1a
1l
1b
1m
1c
1n
1T
1Z
1e
13
12
11
10
1/
1.
1-
1*
1B
1A
1@
1?
1>
1=
1<
1;
15
#500000
0!
0N
03!
#505000
1!
1N
13!
1g"
04!
15!
1y!
1}!
16!
0~!
#510000
0!
0N
03!
#515000
1!
1N
13!
0g"
0!"
1~!
14!
05!
0y!
0}!
06!
0~!
#520000
0!
0N
03!
#525000
1!
1N
13!
1g"
04!
15!
1y!
1}!
16!
1~!
#530000
0!
0N
03!
#535000
1!
1N
13!
0g"
1!"
0~!
0="
16"
07"
0F"
0E"
0D"
0C"
0B"
0A"
14!
05!
0y!
0}!
06!
1%"
0-"
1."
10"
1,"
1~!
0|
01!
0{
0}
00!
02!
0z
0/!
0y
0.!
0x
0-!
0w
0,!
0r
1s
0"!
0*!
0^
0i
0_
0]
0j
0h
0`
0k
0a
0l
0b
0m
0c
0n
0T
1S
0Z
0e
03
02
01
00
0/
0.
0-
0*
0B
0A
0@
0?
0>
0=
0<
0;
1:
05
#540000
0!
0N
03!
#545000
1!
1N
13!
1g"
04!
15!
1y!
1}!
16!
0~!
#550000
0!
0N
03!
#555000
1!
1N
13!
0g"
0!"
1~!
14!
05!
0y!
0}!
06!
0~!
#560000
0!
0N
03!
#565000
1!
1N
13!
1g"
04!
15!
1y!
1}!
16!
1~!
#570000
0!
0N
03!
#575000
1!
1N
13!
0g"
1!"
0~!
1="
17"
0G"
1F"
1D"
14!
05!
0y!
0}!
06!
0""
1#"
0("
0*"
1+"
0."
00"
0,"
0$"
1~!
1y
1.!
1w
1,!
0v
0+!
1r
1"!
1*!
1a
1l
1c
1n
0d
0o
1T
1Z
1e
04
13
11
1*
0C
1B
1@
1;
15
#580000
0!
0N
03!
#585000
1!
1N
13!
1g"
04!
15!
1y!
1}!
16!
0~!
#590000
0!
0N
03!
#595000
1!
1N
13!
0g"
0!"
1~!
14!
05!
0y!
0}!
06!
0~!
#600000
0!
0N
03!
#605000
1!
1N
13!
1g"
04!
15!
1y!
1}!
16!
1~!
#610000
0!
0N
03!
#615000
1!
1N
13!
0g"
1!"
0~!
05"
04"
0?"
06"
1>"
07"
0F"
0D"
14!
05!
0y!
0}!
06!
0'"
0#"
1)"
0%"
1("
0+"
1-"
1."
1/"
1~!
0y
0.!
0w
0,!
0r
1!!
1)!
0s
0~
0(!
0u
0t
0a
0l
0c
0n
0T
1[
1f
0S
0\
0g
0Q
0R
03
01
0,
1+
0B
0@
0;
0:
09
08
07
16
#620000
0!
0N
03!
#625000
1!
1N
13!
1g"
04!
15!
1y!
1}!
16!
0~!
#630000
0!
0N
03!
#635000
1!
1N
13!
0g"
0!"
1~!
14!
05!
0y!
0}!
06!
0~!
#640000
0!
0N
03!
#645000
1!
1N
13!
1g"
04!
15!
1y!
1}!
16!
1~!
#650000
0!
0N
03!
#655000
1!
1N
13!
0g"
1!"
0~!
14!
05!
0y!
0}!
06!
1~!
#660000
0!
0N
03!
#665000
1!
1N
13!
1g"
04!
15!
1y!
1}!
16!
0~!
#670000
0!
0N
03!
#675000
1!
1N
13!
0g"
0!"
1~!
14!
05!
0y!
0}!
06!
0~!
#680000
0!
0N
03!
#685000
1!
1N
13!
1g"
04!
15!
1y!
1}!
16!
1~!
#690000
0!
0N
03!
#695000
1!
1N
13!
0g"
1!"
0~!
14!
05!
0y!
0}!
06!
1~!
#700000
0!
0N
03!
#705000
1!
1N
13!
1g"
04!
15!
1y!
1}!
16!
0~!
#710000
0!
0N
03!
#715000
1!
1N
13!
0g"
0!"
1~!
14!
05!
0y!
0}!
06!
0~!
#720000
0!
0N
03!
#725000
1!
1N
13!
1g"
04!
15!
1y!
1}!
16!
1~!
#730000
0!
0N
03!
#735000
1!
1N
13!
0g"
1!"
0~!
14!
05!
0y!
0}!
06!
1~!
#740000
0!
0N
03!
#745000
1!
1N
13!
1g"
04!
15!
1y!
1}!
16!
0~!
#750000
0!
0N
03!
#755000
1!
1N
13!
0g"
0!"
1~!
14!
05!
0y!
0}!
06!
0~!
#760000
0!
0N
03!
#765000
1!
1N
13!
1g"
04!
15!
1y!
1}!
16!
1~!
#770000
0!
0N
03!
#775000
1!
1N
13!
0g"
1!"
0~!
14!
05!
0y!
0}!
06!
1~!
#780000
0!
0N
03!
#785000
1!
1N
13!
1g"
04!
15!
1y!
1}!
16!
0~!
#790000
0!
0N
03!
#795000
1!
1N
13!
0g"
0!"
1~!
14!
05!
0y!
0}!
06!
0~!
#800000
0!
0N
03!
#805000
1!
1N
13!
1g"
04!
15!
1y!
1}!
16!
1~!
#810000
0!
0N
03!
#815000
1!
1N
13!
0g"
1!"
0~!
14!
05!
0y!
0}!
06!
1~!
#820000
0!
0N
03!
#825000
1!
1N
13!
1g"
04!
15!
1y!
1}!
16!
0~!
#830000
0!
0N
03!
#835000
1!
1N
13!
0g"
0!"
1~!
14!
05!
0y!
0}!
06!
0~!
#840000
0!
0N
03!
#845000
1!
1N
13!
1g"
04!
15!
1y!
1}!
16!
1~!
#850000
0!
0N
03!
#855000
1!
1N
13!
0g"
1!"
0~!
14!
05!
0y!
0}!
06!
1~!
#860000
0!
0N
03!
#865000
1!
1N
13!
1g"
04!
15!
1y!
1}!
16!
0~!
#870000
0!
0N
03!
#875000
1!
1N
13!
0g"
0!"
1~!
14!
05!
0y!
0}!
06!
0~!
#880000
0!
0N
03!
#885000
1!
1N
13!
1g"
04!
15!
1y!
1}!
16!
1~!
