simulation/qsim/Trabalho.msim.vcd
$comment
	File created using the following command:
		vcd file Trabalho.msim.vcd -direction
$end
$date
	Fri Jan 24 22:20:55 2025
$end
$version
	ModelSim Version 10.5b
$end
$timescale
	1ps
$end

$scope module trabalho_vhd_vec_tst $end
$var wire 1 ! CLK $end
$var wire 1 " controle_BCD $end
$var wire 1 # reset $end
$var wire 1 $ saida_BCD $end
$var wire 1 % valor_Memoria [15] $end
$var wire 1 & valor_Memoria [14] $end
$var wire 1 ' valor_Memoria [13] $end
$var wire 1 ( valor_Memoria [12] $end
$var wire 1 ) valor_Memoria [11] $end
$var wire 1 * valor_Memoria [10] $end
$var wire 1 + valor_Memoria [9] $end
$var wire 1 , valor_Memoria [8] $end
$var wire 1 - valor_Memoria [7] $end
$var wire 1 . valor_Memoria [6] $end
$var wire 1 / valor_Memoria [5] $end
$var wire 1 0 valor_Memoria [4] $end
$var wire 1 1 valor_Memoria [3] $end
$var wire 1 2 valor_Memoria [2] $end
$var wire 1 3 valor_Memoria [1] $end
$var wire 1 4 valor_Memoria [0] $end
$var wire 1 5 valor_OPCODE [2] $end
$var wire 1 6 valor_OPCODE [1] $end
$var wire 1 7 valor_OPCODE [0] $end
$var wire 1 8 valor_PC [3] $end
$var wire 1 9 valor_PC [2] $end
$var wire 1 : valor_PC [1] $end
$var wire 1 ; valor_PC [0] $end
$var wire 1 < valor_X [7] $end
$var wire 1 = valor_X [6] $end
$var wire 1 > valor_X [5] $end
$var wire 1 ? valor_X [4] $end
$var wire 1 @ valor_X [3] $end
$var wire 1 A valor_X [2] $end
$var wire 1 B valor_X [1] $end
$var wire 1 C valor_X [0] $end
$var wire 1 D valor_Y [7] $end
$var wire 1 E valor_Y [6] $end
$var wire 1 F valor_Y [5] $end
$var wire 1 G valor_Y [4] $end
$var wire 1 H valor_Y [3] $end
$var wire 1 I valor_Y [2] $end
$var wire 1 J valor_Y [1] $end
$var wire 1 K valor_Y [0] $end

$scope module i1 $end
$var wire 1 L gnd $end
$var wire 1 M vcc $end
$var wire 1 N unknown $end
$var wire 1 O devoe $end
$var wire 1 P devclrn $end
$var wire 1 Q devpor $end
$var wire 1 R ww_devoe $end
$var wire 1 S ww_devclrn $end
$var wire 1 T ww_devpor $end
$var wire 1 U ww_reset $end
$var wire 1 V ww_CLK $end
$var wire 1 W ww_controle_BCD $end
$var wire 1 X ww_saida_BCD $end
$var wire 1 Y ww_valor_PC [3] $end
$var wire 1 Z ww_valor_PC [2] $end
$var wire 1 [ ww_valor_PC [1] $end
$var wire 1 \ ww_valor_PC [0] $end
$var wire 1 ] ww_valor_Memoria [15] $end
$var wire 1 ^ ww_valor_Memoria [14] $end
$var wire 1 _ ww_valor_Memoria [13] $end
$var wire 1 ` ww_valor_Memoria [12] $end
$var wire 1 a ww_valor_Memoria [11] $end
$var wire 1 b ww_valor_Memoria [10] $end
$var wire 1 c ww_valor_Memoria [9] $end
$var wire 1 d ww_valor_Memoria [8] $end
$var wire 1 e ww_valor_Memoria [7] $end
$var wire 1 f ww_valor_Memoria [6] $end
$var wire 1 g ww_valor_Memoria [5] $end
$var wire 1 h ww_valor_Memoria [4] $end
$var wire 1 i ww_valor_Memoria [3] $end
$var wire 1 j ww_valor_Memoria [2] $end
$var wire 1 k ww_valor_Memoria [1] $end
$var wire 1 l ww_valor_Memoria [0] $end
$var wire 1 m ww_valor_OPCODE [2] $end
$var wire 1 n ww_valor_OPCODE [1] $end
$var wire 1 o ww_valor_OPCODE [0] $end
$var wire 1 p ww_valor_Y [7] $end
$var wire 1 q ww_valor_Y [6] $end
$var wire 1 r ww_valor_Y [5] $end
$var wire 1 s ww_valor_Y [4] $end
$var wire 1 t ww_valor_Y [3] $end
$var wire 1 u ww_valor_Y [2] $end
$var wire 1 v ww_valor_Y [1] $end
$var wire 1 w ww_valor_Y [0] $end
$var wire 1 x ww_valor_X [7] $end
$var wire 1 y ww_valor_X [6] $end
$var wire 1 z ww_valor_X [5] $end
$var wire 1 { ww_valor_X [4] $end
$var wire 1 | ww_valor_X [3] $end
$var wire 1 } ww_valor_X [2] $end
$var wire 1 ~ ww_valor_X [1] $end
$var wire 1 !! ww_valor_X [0] $end
$var wire 1 "! \clock_div|led_status~clkctrl_INCLK_bus\ [3] $end
$var wire 1 #! \clock_div|led_status~clkctrl_INCLK_bus\ [2] $end
$var wire 1 $! \clock_div|led_status~clkctrl_INCLK_bus\ [1] $end
$var wire 1 %! \clock_div|led_status~clkctrl_INCLK_bus\ [0] $end
$var wire 1 &! \CLK~inputclkctrl_INCLK_bus\ [3] $end
$var wire 1 '! \CLK~inputclkctrl_INCLK_bus\ [2] $end
$var wire 1 (! \CLK~inputclkctrl_INCLK_bus\ [1] $end
$var wire 1 )! \CLK~inputclkctrl_INCLK_bus\ [0] $end
$var wire 1 *! \controle_BCD~output_o\ $end
$var wire 1 +! \saida_BCD~output_o\ $end
$var wire 1 ,! \valor_PC[0]~output_o\ $end
$var wire 1 -! \valor_PC[1]~output_o\ $end
$var wire 1 .! \valor_PC[2]~output_o\ $end
$var wire 1 /! \valor_PC[3]~output_o\ $end
$var wire 1 0! \valor_Memoria[0]~output_o\ $end
$var wire 1 1! \valor_Memoria[1]~output_o\ $end
$var wire 1 2! \valor_Memoria[2]~output_o\ $end
$var wire 1 3! \valor_Memoria[3]~output_o\ $end
$var wire 1 4! \valor_Memoria[4]~output_o\ $end
$var wire 1 5! \valor_Memoria[5]~output_o\ $end
$var wire 1 6! \valor_Memoria[6]~output_o\ $end
$var wire 1 7! \valor_Memoria[7]~output_o\ $end
$var wire 1 8! \valor_Memoria[8]~output_o\ $end
$var wire 1 9! \valor_Memoria[9]~output_o\ $end
$var wire 1 :! \valor_Memoria[10]~output_o\ $end
$var wire 1 ;! \valor_Memoria[11]~output_o\ $end
$var wire 1 <! \valor_Memoria[12]~output_o\ $end
$var wire 1 =! \valor_Memoria[13]~output_o\ $end
$var wire 1 >! \valor_Memoria[14]~output_o\ $end
$var wire 1 ?! \valor_Memoria[15]~output_o\ $end
$var wire 1 @! \valor_OPCODE[0]~output_o\ $end
$var wire 1 A! \valor_OPCODE[1]~output_o\ $end
$var wire 1 B! \valor_OPCODE[2]~output_o\ $end
$var wire 1 C! \valor_Y[0]~output_o\ $end
$var wire 1 D! \valor_Y[1]~output_o\ $end
$var wire 1 E! \valor_Y[2]~output_o\ $end
$var wire 1 F! \valor_Y[3]~output_o\ $end
$var wire 1 G! \valor_Y[4]~output_o\ $end
$var wire 1 H! \valor_Y[5]~output_o\ $end
$var wire 1 I! \valor_Y[6]~output_o\ $end
$var wire 1 J! \valor_Y[7]~output_o\ $end
$var wire 1 K! \valor_X[0]~output_o\ $end
$var wire 1 L! \valor_X[1]~output_o\ $end
$var wire 1 M! \valor_X[2]~output_o\ $end
$var wire 1 N! \valor_X[3]~output_o\ $end
$var wire 1 O! \valor_X[4]~output_o\ $end
$var wire 1 P! \valor_X[5]~output_o\ $end
$var wire 1 Q! \valor_X[6]~output_o\ $end
$var wire 1 R! \valor_X[7]~output_o\ $end
$var wire 1 S! \CLK~input_o\ $end
$var wire 1 T! \CLK~inputclkctrl_outclk\ $end
$var wire 1 U! \clock_div|Add0~0_combout\ $end
$var wire 1 V! \clock_div|Equal0~0_combout\ $end
$var wire 1 W! \clock_div|Equal0~1_combout\ $end
$var wire 1 X! \clock_div|Equal0~3_combout\ $end
$var wire 1 Y! \clock_div|Equal0~2_combout\ $end
$var wire 1 Z! \clock_div|Equal0~4_combout\ $end
$var wire 1 [! \clock_div|Add0~1\ $end
$var wire 1 \! \clock_div|Add0~2_combout\ $end
$var wire 1 ]! \clock_div|contador~0_combout\ $end
$var wire 1 ^! \clock_div|Add0~3\ $end
$var wire 1 _! \clock_div|Add0~4_combout\ $end
$var wire 1 `! \clock_div|Add0~5\ $end
$var wire 1 a! \clock_div|Add0~6_combout\ $end
$var wire 1 b! \clock_div|Add0~7\ $end
$var wire 1 c! \clock_div|Add0~8_combout\ $end
$var wire 1 d! \clock_div|Add0~9\ $end
$var wire 1 e! \clock_div|Add0~10_combout\ $end
$var wire 1 f! \clock_div|Add0~11\ $end
$var wire 1 g! \clock_div|Add0~12_combout\ $end
$var wire 1 h! \clock_div|Add0~13\ $end
$var wire 1 i! \clock_div|Add0~14_combout\ $end
$var wire 1 j! \clock_div|Add0~15\ $end
$var wire 1 k! \clock_div|Add0~16_combout\ $end
$var wire 1 l! \clock_div|Add0~17\ $end
$var wire 1 m! \clock_div|Add0~18_combout\ $end
$var wire 1 n! \clock_div|Add0~19\ $end
$var wire 1 o! \clock_div|Add0~20_combout\ $end
$var wire 1 p! \clock_div|Add0~21\ $end
$var wire 1 q! \clock_div|Add0~22_combout\ $end
$var wire 1 r! \clock_div|Add0~23\ $end
$var wire 1 s! \clock_div|Add0~24_combout\ $end
$var wire 1 t! \clock_div|Add0~25\ $end
$var wire 1 u! \clock_div|Add0~26_combout\ $end
$var wire 1 v! \clock_div|Add0~27\ $end
$var wire 1 w! \clock_div|Add0~28_combout\ $end
$var wire 1 x! \clock_div|Add0~29\ $end
$var wire 1 y! \clock_div|Add0~30_combout\ $end
$var wire 1 z! \clock_div|Add0~31\ $end
$var wire 1 {! \clock_div|Add0~32_combout\ $end
$var wire 1 |! \clock_div|Add0~33\ $end
$var wire 1 }! \clock_div|Add0~34_combout\ $end
$var wire 1 ~! \clock_div|Add0~35\ $end
$var wire 1 !" \clock_div|Add0~36_combout\ $end
$var wire 1 "" \clock_div|Add0~37\ $end
$var wire 1 #" \clock_div|Add0~38_combout\ $end
$var wire 1 $" \clock_div|Add0~39\ $end
$var wire 1 %" \clock_div|Add0~40_combout\ $end
$var wire 1 &" \clock_div|Add0~41\ $end
$var wire 1 '" \clock_div|Add0~42_combout\ $end
$var wire 1 (" \clock_div|Add0~43\ $end
$var wire 1 )" \clock_div|Add0~44_combout\ $end
$var wire 1 *" \clock_div|Add0~45\ $end
$var wire 1 +" \clock_div|Add0~46_combout\ $end
$var wire 1 ," \clock_div|Equal0~6_combout\ $end
$var wire 1 -" \clock_div|Add0~47\ $end
$var wire 1 ." \clock_div|Add0~48_combout\ $end
$var wire 1 /" \clock_div|Add0~49\ $end
$var wire 1 0" \clock_div|Add0~50_combout\ $end
$var wire 1 1" \clock_div|Add0~51\ $end
$var wire 1 2" \clock_div|Add0~52_combout\ $end
$var wire 1 3" \clock_div|Add0~53\ $end
$var wire 1 4" \clock_div|Add0~54_combout\ $end
$var wire 1 5" \clock_div|Add0~55\ $end
$var wire 1 6" \clock_div|Add0~56_combout\ $end
$var wire 1 7" \clock_div|Add0~57\ $end
$var wire 1 8" \clock_div|Add0~58_combout\ $end
$var wire 1 9" \clock_div|Add0~59\ $end
$var wire 1 :" \clock_div|Add0~60_combout\ $end
$var wire 1 ;" \clock_div|Add0~61\ $end
$var wire 1 <" \clock_div|Add0~62_combout\ $end
$var wire 1 =" \clock_div|Equal0~8_combout\ $end
$var wire 1 >" \clock_div|Equal0~7_combout\ $end
$var wire 1 ?" \clock_div|Equal0~5_combout\ $end
$var wire 1 @" \clock_div|Equal0~9_combout\ $end
$var wire 1 A" \clock_div|led_status~0_combout\ $end
$var wire 1 B" \clock_div|led_status~feeder_combout\ $end
$var wire 1 C" \clock_div|led_status~q\ $end
$var wire 1 D" \clock_div|led_status~clkctrl_outclk\ $end
$var wire 1 E" \PC_in|sinal_PC~5_combout\ $end
$var wire 1 F" \PC_in|Add0~0_combout\ $end
$var wire 1 G" \PC_in|sinal_PC~4_combout\ $end
$var wire 1 H" \MEM_ini|Mux0~0_combout\ $end
$var wire 1 I" \reset~input_o\ $end
$var wire 1 J" \sinal_LER_final~0_combout\ $end
$var wire 1 K" \MEM_ini|Mux2~0_combout\ $end
$var wire 1 L" \Controle_ini|Equal0~0_combout\ $end
$var wire 1 M" \PC_in|sinal_PC~3_combout\ $end
$var wire 1 N" \MEM_ini|Mux1~0_combout\ $end
$var wire 1 O" \PC_in|sinal_PC~2_combout\ $end
$var wire 1 P" \MEM_ini|Mux9~0_combout\ $end
$var wire 1 Q" \MEM_ini|Mux8~0_combout\ $end
$var wire 1 R" \MEM_ini|Mux7~0_combout\ $end
$var wire 1 S" \MEM_ini|Mux6~0_combout\ $end
$var wire 1 T" \MEM_ini|Mux5~0_combout\ $end
$var wire 1 U" \MEM_ini|Mux5~1_combout\ $end
$var wire 1 V" \MEM_ini|Mux4~0_combout\ $end
$var wire 1 W" \ULA_ini|Add0~0_combout\ $end
$var wire 1 X" \REG_ini|REG_out[0]~0_combout\ $end
$var wire 1 Y" \Controle_ini|LER_out~0_combout\ $end
$var wire 1 Z" \ULA_ini|Mux7~0_combout\ $end
$var wire 1 [" \ULA_ini|Mux7~1_combout\ $end
$var wire 1 \" \Controle_ini|CARREGA_out~0_combout\ $end
$var wire 1 ]" \ULA_ini|Add0~1\ $end
$var wire 1 ^" \ULA_ini|Add0~2_combout\ $end
$var wire 1 _" \ULA_ini|Mux6~0_combout\ $end
$var wire 1 `" \ULA_ini|Mux6~1_combout\ $end
$var wire 1 a" \ULA_ini|Add0~3\ $end
$var wire 1 b" \ULA_ini|Add0~4_combout\ $end
$var wire 1 c" \ULA_ini|Mux5~0_combout\ $end
$var wire 1 d" \ULA_ini|Mux5~1_combout\ $end
$var wire 1 e" \ULA_ini|Mux4~0_combout\ $end
$var wire 1 f" \ULA_ini|Add0~5\ $end
$var wire 1 g" \ULA_ini|Add0~6_combout\ $end
$var wire 1 h" \ULA_ini|Mux4~1_combout\ $end
$var wire 1 i" \ULA_ini|Mux3~0_combout\ $end
$var wire 1 j" \ULA_ini|Add0~7\ $end
$var wire 1 k" \ULA_ini|Add0~8_combout\ $end
$var wire 1 l" \ULA_ini|Mux3~1_combout\ $end
$var wire 1 m" \ULA_ini|Add0~9\ $end
$var wire 1 n" \ULA_ini|Add0~10_combout\ $end
$var wire 1 o" \ULA_ini|Mux2~0_combout\ $end
$var wire 1 p" \REG_ini|REG_out[5]~1_combout\ $end
$var wire 1 q" \ULA_ini|Mux2~1_combout\ $end
$var wire 1 r" \ULA_ini|Mux2~2_combout\ $end
$var wire 1 s" \ULA_ini|Add0~12_combout\ $end
$var wire 1 t" \ULA_ini|Mux1~0_combout\ $end
$var wire 1 u" \ULA_ini|Add0~11\ $end
$var wire 1 v" \ULA_ini|Add0~13_combout\ $end
$var wire 1 w" \ULA_ini|Mux1~1_combout\ $end
$var wire 1 x" \ULA_ini|Mux0~0_combout\ $end
$var wire 1 y" \ULA_ini|Mux0~1_combout\ $end
$var wire 1 z" \ULA_ini|Add0~14\ $end
$var wire 1 {" \ULA_ini|Add0~15_combout\ $end
$var wire 1 |" \ULA_ini|Add0~17_combout\ $end
$var wire 1 }" \PC_in|sinal_PC\ [3] $end
$var wire 1 ~" \PC_in|sinal_PC\ [2] $end
$var wire 1 !# \PC_in|sinal_PC\ [1] $end
$var wire 1 "# \PC_in|sinal_PC\ [0] $end
$var wire 1 ## \MEM_ini|instrucao_atual\ [15] $end
$var wire 1 $# \MEM_ini|instrucao_atual\ [14] $end
$var wire 1 %# \MEM_ini|instrucao_atual\ [13] $end
$var wire 1 &# \MEM_ini|instrucao_atual\ [12] $end
$var wire 1 '# \MEM_ini|instrucao_atual\ [11] $end
$var wire 1 (# \MEM_ini|instrucao_atual\ [10] $end
$var wire 1 )# \MEM_ini|instrucao_atual\ [9] $end
$var wire 1 *# \MEM_ini|instrucao_atual\ [8] $end
$var wire 1 +# \MEM_ini|instrucao_atual\ [7] $end
$var wire 1 ,# \MEM_ini|instrucao_atual\ [6] $end
$var wire 1 -# \MEM_ini|instrucao_atual\ [5] $end
$var wire 1 .# \MEM_ini|instrucao_atual\ [4] $end
$var wire 1 /# \MEM_ini|instrucao_atual\ [3] $end
$var wire 1 0# \MEM_ini|instrucao_atual\ [2] $end
$var wire 1 1# \MEM_ini|instrucao_atual\ [1] $end
$var wire 1 2# \MEM_ini|instrucao_atual\ [0] $end
$var wire 1 3# \REG_ini|REG_out\ [7] $end
$var wire 1 4# \REG_ini|REG_out\ [6] $end
$var wire 1 5# \REG_ini|REG_out\ [5] $end
$var wire 1 6# \REG_ini|REG_out\ [4] $end
$var wire 1 7# \REG_ini|REG_out\ [3] $end
$var wire 1 8# \REG_ini|REG_out\ [2] $end
$var wire 1 9# \REG_ini|REG_out\ [1] $end
$var wire 1 :# \REG_ini|REG_out\ [0] $end
$var wire 1 ;# \clock_div|contador\ [31] $end
$var wire 1 <# \clock_div|contador\ [30] $end
$var wire 1 =# \clock_div|contador\ [29] $end
$var wire 1 ># \clock_div|contador\ [28] $end
$var wire 1 ?# \clock_div|contador\ [27] $end
$var wire 1 @# \clock_div|contador\ [26] $end
$var wire 1 A# \clock_div|contador\ [25] $end
$var wire 1 B# \clock_div|contador\ [24] $end
$var wire 1 C# \clock_div|contador\ [23] $end
$var wire 1 D# \clock_div|contador\ [22] $end
$var wire 1 E# \clock_div|contador\ [21] $end
$var wire 1 F# \clock_div|contador\ [20] $end
$var wire 1 G# \clock_div|contador\ [19] $end
$var wire 1 H# \clock_div|contador\ [18] $end
$var wire 1 I# \clock_div|contador\ [17] $end
$var wire 1 J# \clock_div|contador\ [16] $end
$var wire 1 K# \clock_div|contador\ [15] $end
$var wire 1 L# \clock_div|contador\ [14] $end
$var wire 1 M# \clock_div|contador\ [13] $end
$var wire 1 N# \clock_div|contador\ [12] $end
$var wire 1 O# \clock_div|contador\ [11] $end
$var wire 1 P# \clock_div|contador\ [10] $end
$var wire 1 Q# \clock_div|contador\ [9] $end
$var wire 1 R# \clock_div|contador\ [8] $end
$var wire 1 S# \clock_div|contador\ [7] $end
$var wire 1 T# \clock_div|contador\ [6] $end
$var wire 1 U# \clock_div|contador\ [5] $end
$var wire 1 V# \clock_div|contador\ [4] $end
$var wire 1 W# \clock_div|contador\ [3] $end
$var wire 1 X# \clock_div|contador\ [2] $end
$var wire 1 Y# \clock_div|contador\ [1] $end
$var wire 1 Z# \clock_div|contador\ [0] $end
$upscope $end
$upscope $end
$enddefinitions $end
#0
$dumpvars
0!
0"
0#
0$
0L
1M
xN
1O
1P
1Q
1R
1S
1T
0U
0V
0W
0X
0*!
0+!
0,!
0-!
0.!
0/!
00!
01!
02!
03!
04!
05!
06!
07!
08!
09!
0:!
0;!
0<!
0=!
0>!
0?!
0@!
0A!
0B!
0C!
0D!
0E!
0F!
0G!
0H!
0I!
0J!
0K!
0L!
0M!
0N!
0O!
0P!
0Q!
0R!
0S!
0T!
1U!
0V!
1W!
1X!
1Y!
0Z!
0[!
0\!
0]!
1^!
0_!
0`!
0a!
1b!
0c!
0d!
0e!
1f!
0g!
0h!
0i!
1j!
0k!
0l!
0m!
1n!
0o!
0p!
0q!
1r!
0s!
0t!
0u!
1v!
0w!
0x!
0y!
1z!
0{!
0|!
0}!
1~!
0!"
0""
0#"
1$"
0%"
0&"
0'"
1("
0)"
0*"
0+"
1,"
1-"
0."
0/"
00"
11"
02"
03"
04"
15"
06"
07"
08"
19"
0:"
0;"
0<"
1="
1>"
1?"
1@"
0A"
0B"
0C"
0D"
0E"
0F"
0G"
0H"
0I"
1J"
1K"
0L"
0M"
0N"
1O"
1P"
1Q"
1R"
0S"
0T"
0U"
0V"
0W"
1X"
0Y"
0Z"
0["
0\"
0]"
0^"
0_"
0`"
1a"
0b"
0c"
0d"
0e"
0f"
0g"
0h"
0i"
1j"
0k"
0l"
0m"
0n"
0o"
0p"
0q"
0r"
0s"
0t"
1u"
0v"
0w"
0x"
0y"
0z"
0{"
0|"
08
09
0:
0;
0%
0&
0'
0(
0)
0*
0+
0,
0-
0.
0/
00
01
02
03
04
05
06
07
0D
0E
0F
0G
0H
0I
0J
0K
0<
0=
0>
0?
0@
0A
0B
0C
0Y
0Z
0[
0\
0]
0^
0_
0`
0a
0b
0c
0d
0e
0f
0g
0h
0i
0j
0k
0l
0m
0n
0o
0p
0q
0r
0s
0t
0u
0v
0w
0x
0y
0z
0{
0|
0}
0~
0!!
0}"
0~"
0!#
0"#
x##
x$#
x%#
x&#
x'#
0(#
0)#
0*#
x+#
0,#
0-#
0.#
0/#
00#
01#
02#
03#
04#
05#
06#
07#
08#
09#
0:#
0;#
0<#
0=#
0>#
0?#
0@#
0A#
0B#
0C#
0D#
0E#
0F#
0G#
0H#
0I#
0J#
0K#
0L#
0M#
0N#
0O#
0P#
0Q#
0R#
0S#
0T#
0U#
0V#
0W#
0X#
0Y#
0Z#
1&!
1'!
1(!
0)!
1"!
1#!
1$!
0%!
$end
#5000
1!
1V
1S!
1)!
1T!
1Z#
0U!
1[!
1V!
1Z!
1\!
1A"
1B"
#10000
0!
0V
0S!
0)!
0T!
#15000
1!
1V
1S!
1)!
1T!
0Z#
1C"
1%!
0A"
1U!
0[!
0V!
0Z!
0\!
0B"
1D"
1A"
1*#
1"#
12#
11#
10#
1B"
1b"
1^"
1W"
1H"
1M"
0P"
0R"
0O"
0X"
1Z"
1\"
1_"
1c"
1p"
1q"
1x"
1y"
1r"
0q"
0x"
1["
1`"
1d"
12!
1E!
11!
1D!
10!
1C!
1,!
18!
1@!
0y"
0r"
1j
1u
1k
1v
1l
1w
1\
1d
1o
14
13
12
1,
1K
1J
1I
1;
17
#20000
0!
0V
0S!
0)!
0T!
#25000
1!
1V
1S!
1)!
1T!
1Z#
0U!
1[!
1V!
1Z!
1\!
0A"
0B"
#30000
0!
0V
0S!
0)!
0T!
#35000
1!
1V
1S!
1)!
1T!
0Z#
0C"
0%!
1A"
1U!
0[!
0V!
0Z!
0\!
1B"
0D"
0A"
0B"
#40000
0!
0V
0S!
0)!
0T!
#45000
1!
1V
1S!
1)!
1T!
1Z#
0U!
1[!
1V!
1Z!
1\!
1A"
1B"
#50000
0!
0V
0S!
0)!
0T!
#55000
1!
1V
1S!
1)!
1T!
0Z#
1C"
1%!
0A"
1U!
0[!
0V!
0Z!
0\!
0B"
1D"
1A"
1(#
1!#
0"#
02#
00#
1:#
19#
18#
1B"
0^"
0a"
0H"
1P"
0Q"
1R"
1O"
1X"
1Y"
0Z"
0c"
0p"
1r"
1y"
1q"
1x"
0["
0d"
1s"
1|"
0b"
1f"
1M!
1L!
1K!
02!
0E!
00!
0C!
0,!
1-!
1:!
1B!
1g"
0y"
0r"
1}
1~
1!!
0j
0u
0l
0w
0\
1[
1b
1m
1C
1B
1A
04
02
1*
0K
0I
0;
1:
15
0s"
0|"
#60000
0!
0V
0S!
0)!
0T!
#65000
1!
1V
1S!
1)!
1T!
1Z#
0U!
1[!
1V!
1Z!
1\!
0A"
0B"
#70000
0!
0V
0S!
0)!
0T!
#75000
1!
1V
1S!
1)!
1T!
0Z#
0C"
0%!
1A"
1U!
0[!
0V!
0Z!
0\!
1B"
0D"
0A"
0B"
#80000
0!
0V
0S!
0)!
0T!
#85000
1!
1V
1S!
1)!
1T!
1Z#
0U!
1[!
1V!
1Z!
1\!
1A"
1B"
#90000
0!
0V
0S!
0)!
0T!
#95000
1!
1V
1S!
1)!
1T!
0Z#
1C"
1%!
0A"
1U!
0[!
0V!
0Z!
0\!
0B"
1D"
1A"
0(#
1"#
12#
01#
10#
0:#
08#
1B"
1^"
1a"
1E"
1F"
0M"
0P"
0R"
1S"
0O"
0X"
0Y"
1Z"
1c"
1p"
1r"
1y"
0q"
0x"
1["
1h"
1b"
0f"
0M!
0K!
12!
1E!
01!
0D!
10!
1C!
1,!
0:!
0B!
0g"
1d"
0y"
0r"
0}
0!!
1j
1u
0k
0v
1l
1w
1\
0b
0m
0C
0A
14
03
12
0*
1K
0J
1I
1;
05
0h"
#100000
0!
0V
0S!
0)!
0T!
#105000
1!
1V
1S!
1)!
1T!
1Z#
0U!
1[!
1V!
1Z!
1\!
0A"
0B"
#110000
0!
0V
0S!
0)!
0T!
#115000
1!
1V
1S!
1)!
1T!
0Z#
0C"
0%!
1A"
1U!
0[!
0V!
0Z!
0\!
1B"
0D"
0A"
0B"
#120000
0!
0V
0S!
0)!
0T!
#125000
1!
1V
1S!
1)!
1T!
1Z#
0U!
1[!
1V!
1Z!
1\!
1A"
1B"
#130000
0!
0V
0S!
0)!
0T!
#135000
1!
1V
1S!
1)!
1T!
0Z#
1C"
1%!
0A"
1U!
0[!
0V!
0Z!
0\!
0B"
1D"
1A"
1~"
0!#
0"#
02#
00#
1/#
1:#
18#
1B"
1e"
1g"
1O"
0F"
1G"
0K"
1N"
1P"
1R"
0S"
0G"
1h"
1M!
1K!
13!
1F!
02!
0E!
00!
0C!
0,!
0-!
1.!
1}
1!!
1i
1t
0j
0u
0l
0w
0\
0[
1Z
1C
1A
04
02
11
0K
0I
1H
0;
0:
19
#140000
0!
0V
0S!
0)!
0T!
#145000
1!
1V
1S!
1)!
1T!
1Z#
0U!
1[!
1V!
1Z!
1\!
0A"
0B"
#150000
0!
0V
0S!
0)!
0T!
#155000
1!
1V
1S!
1)!
1T!
0Z#
0C"
0%!
1A"
1U!
0[!
0V!
0Z!
0\!
1B"
0D"
0A"
0B"
#160000
0!
0V
0S!
0)!
0T!
#165000
1!
1V
1S!
1)!
1T!
1Z#
0U!
1[!
1V!
1Z!
1\!
1A"
1B"
#170000
0!
0V
0S!
0)!
0T!
#175000
1!
1V
1S!
1)!
1T!
0Z#
1C"
1%!
0A"
1U!
0[!
0V!
0Z!
0\!
0B"
1D"
1A"
0*#
1)#
1"#
12#
10#
0/#
17#
1B"
0b"
1f"
0W"
1]"
1H"
1M"
0N"
0P"
0R"
1Y"
0O"
1X"
0_"
0e"
0`"
0h"
0^"
0a"
0g"
0j"
1N!
03!
0F!
12!
1E!
10!
1C!
1,!
19!
1A!
08!
0@!
1k"
1b"
1|
0i
0t
1j
1u
1l
1w
1\
1c
1n
0d
0o
1@
14
12
01
0,
1+
1K
1I
0H
1;
07
16
#180000
0!
0V
0S!
0)!
0T!
#185000
1!
1V
1S!
1)!
1T!
1Z#
0U!
1[!
1V!
1Z!
1\!
0A"
0B"
#190000
0!
0V
0S!
0)!
0T!
#195000
1!
1V
1S!
1)!
1T!
0Z#
0C"
0%!
1A"
1U!
0[!
0V!
0Z!
0\!
1B"
0D"
0A"
0B"
#200000
0!
0V
0S!
0)!
0T!
#205000
1!
1V
1S!
1)!
1T!
1Z#
0U!
1[!
1V!
1Z!
1\!
1A"
1B"
#210000
0!
0V
0S!
0)!
0T!
#215000
1!
1V
1S!
1)!
1T!
0Z#
1C"
1%!
0A"
1U!
0[!
0V!
0Z!
0\!
0B"
1D"
1A"
1(#
1!#
0)#
0"#
02#
00#
09#
07#
1B"
1g"
1j"
1^"
1a"
0b"
1W"
0]"
0H"
1N"
1P"
1Q"
1R"
1S"
1O"
0Z"
1_"
0c"
1e"
1i"
0p"
1r"
1t"
1y"
1|"
1w"
1s"
1l"
0^"
0["
0d"
1b"
0f"
1`"
0k"
1h"
0N!
0L!
02!
0E!
00!
0C!
0,!
09!
0A!
1-!
1:!
1B!
0g"
0|
0~
0j
0u
0l
0w
0\
0c
0n
1[
1b
1m
0B
0@
04
02
0+
1*
0K
0I
0;
1:
06
15
#220000
0!
0V
0S!
0)!
0T!
#225000
1!
1V
1S!
1)!
1T!
1Z#
0U!
1[!
1V!
1Z!
1\!
0A"
0B"
#230000
0!
0V
0S!
0)!
0T!
#235000
1!
1V
1S!
1)!
1T!
0Z#
0C"
0%!
1A"
1U!
0[!
0V!
0Z!
0\!
1B"
0D"
0A"
0B"
#240000
0!
0V
0S!
0)!
0T!
#245000
1!
1V
1S!
1)!
1T!
1Z#
0U!
1[!
1V!
1Z!
1\!
1A"
1B"
#250000
0!
0V
0S!
0)!
0T!
#255000
1!
1V
1S!
1)!
1T!
0Z#
1C"
1%!
0A"
1U!
0[!
0V!
0Z!
0\!
0B"
1D"
1A"
0(#
1)#
1"#
12#
11#
10#
1/#
0:#
19#
08#
17#
16#
15#
14#
13#
1B"
1{"
1v"
1n"
1k"
0j"
0a"
0E"
1F"
1K"
0M"
0P"
0Q"
0S"
0O"
0i"
1p"
0r"
0t"
0y"
1G"
0b"
1f"
0k"
1m"
0l"
0s"
0w"
0|"
1R!
1Q!
1P!
1O!
1N!
0M!
1L!
0K!
13!
1F!
12!
1E!
11!
1D!
10!
1C!
1,!
19!
1A!
0:!
0B!
0n"
0u"
1g"
1x
1y
1z
1{
1|
0}
1~
0!!
1i
1t
1j
1u
1k
1v
1l
1w
1\
1c
1n
0b
0m
0C
1B
0A
1@
1?
1>
1=
1<
14
13
12
11
1+
0*
1K
1J
1I
1H
1;
16
05
0v"
1z"
0{"
#260000
0!
0V
0S!
0)!
0T!
#265000
1!
1V
1S!
1)!
1T!
1Z#
0U!
1[!
1V!
1Z!
1\!
0A"
0B"
#270000
0!
0V
0S!
0)!
0T!
#275000
1!
1V
1S!
1)!
1T!
0Z#
0C"
0%!
1A"
1U!
0[!
0V!
0Z!
0\!
1B"
0D"
0A"
0B"
#280000
0!
0V
0S!
0)!
0T!
#285000
1!
1V
1S!
1)!
1T!
1Z#
0U!
1[!
1V!
1Z!
1\!
1A"
1B"
#290000
0!
0V
0S!
0)!
0T!
